{
  "type": "tardis:drafting_table",
  "keys": {
    "c": {
      "item": "tardis:data_crystal"
    },
    "d": {
      "tag": "forge:gems/diamond"
    },
    "r": {
      "tag": "forge:dusts/redstone"
    }
  },
  "pattern": [
    "crc",
    "rdr",
    "crc"
  ],
  "result": {
    "item": "tardis:data_matrix"
  },
  "slag": [
    {
      "item": "minecraft:diamond"
    },
    {
      "item": "tardis:data_crystal"
    },
    {
      "item": "tardis:data_crystal"
    },
    {
      "item": "tardis:data_crystal"
    }
  ],
  "tools": [
    {
      "time": 20,
      "tool": "welding"
    }
  ]
}