{
  "type": "tardis:drafting_table",
  "keys": {
    "c": {
      "item": "tardis:exo_circuits"
    },
    "d": {
      "item": "tardis:data_matrix"
    },
    "f": {
      "item": "tardis:components/fluid_links"
    },
    "i": {
      "tag": "forge:ingots/iron"
    }
  },
  "pattern": [
    "ccc",
    "idi",
    "fi "
  ],
  "result": {
    "item": "tardis:tools/diagnostic_tool"
  },
  "tools": [
    {
      "time": 20,
      "tool": "welding"
    }
  ]
}