{
  "type": "tardis:text",
  "chapter": {
    "name": "refuel",
    "parent_chapter": "main",
    "weight": 300
  },
  "text": "Refueling the TARDIS\n\nShould the timeship become disconnected from the main Eye of Harmony on Galifrey, (Like if you've fallen into another universe) it is possible to fuel the ship with rift energy, or by burning crystals made of condensed Artron, like Xion Crystals, in the Capacitor section of the TARDIS Engine."
}