{
  "type": "tardis:item",
  "chapter": {
    "name": "machines",
    "weight": 0
  },
  "description": "Real-Matter Buffer\n\nA machine capable of breaking down real matter from the outside world (such as cobblestone) for use in the TARDIS. Real-Matter from the buffer will be used in the creation and repair of rooms in the ARS system, or when generating items from the ARS Egg",
  "item": {
    "Count": 1,
    "id": "tardis:matter_buffer"
  }
}