{
  "type": "tardis:item",
  "chapter": {
    "name": "machines",
    "weight": 0
  },
  "description": "Multi-Quantiscope\n\n   A very useful machine, this serves as 'tier 2' to the TRDS Table, able to create the same items cheaper and more reliably, as well as more advanced items that can't be made in the TRDS Table",
  "item": {
    "Count": 1,
    "id": "tardis:quantiscope"
  }
}