{
  "values": [
    {
      "artron": 10.0,
      "ingredient": {
        "item": "tardis:xion"
      }
    },
    {
      "artron": 40.0,
      "ingredient": {
        "item": "tardis:xion_block"
      }
    }
  ]
}