{
  "type": "tardis:item",
  "chapter": {
    "name": "components",
    "parent_chapter": "main",
    "weight": 250
  },
  "description": "Fluid Links\n\nRequired for Flight and refueling\n  A very important component for timeships, these are filled with mercury and serve as an interface between the time rotor and the Artron Banks",
  "item": {
    "Count": 1,
    "id": "tardis:components/fluid_links",
    "tag": {
      "Damage": 0
    }
  }
}