{
  "values": [
    "tardis:decoration/roundels/stripped/dark_oak_stripped_full",
    "tardis:decoration/roundels/stripped/acacia_stripped_full",
    "tardis:decoration/roundels/stripped/warped_stripped_full",
    "tardis:decoration/roundels/stripped/crimson_stripped_full",
    "tardis:decoration/roundels/stripped/oak_stripped_full",
    "tardis:decoration/roundels/stripped/birch_stripped_full",
    "tardis:decoration/roundels/stripped/jungle_stripped_full",
    "tardis:decoration/roundels/stripped/spruce_stripped_full",
    "tardis:decoration/roundels/misc/nether_bricks_full",
    "tardis:decoration/roundels/misc/chiseled_quartz_block_full",
    "tardis:decoration/roundels/misc/quartz_pillar_full",
    "tardis:decoration/roundels/misc/red_nether_bricks_full",
    "tardis:decoration/roundels/misc/purpur_pillar_full",
    "tardis:decoration/roundels/misc/nether_wart_block_full",
    "tardis:decoration/roundels/misc/quartz_bricks_full",
    "tardis:decoration/roundels/misc/chiseled_quartz_block_top_full",
    "tardis:decoration/roundels/misc/purpur_bricks_full",
    "tardis:decoration/roundels/misc/bone_block_full",
    "tardis:decoration/roundels/concrete/light_blue_concrete_full",
    "tardis:decoration/roundels/concrete/black_concrete_full",
    "tardis:decoration/roundels/concrete/orange_concrete_full",
    "tardis:decoration/roundels/concrete/purple_concrete_full",
    "tardis:decoration/roundels/concrete/green_concrete_full",
    "tardis:decoration/roundels/concrete/yellow_concrete_full",
    "tardis:decoration/roundels/concrete/brown_concrete_full",
    "tardis:decoration/roundels/concrete/pink_concrete_full",
    "tardis:decoration/roundels/concrete/white_concrete_full",
    "tardis:decoration/roundels/concrete/gray_concrete_full",
    "tardis:decoration/roundels/concrete/red_concrete_full",
    "tardis:decoration/roundels/concrete/blue_concrete_full",
    "tardis:decoration/roundels/concrete/light_gray_concrete_full",
    "tardis:decoration/roundels/concrete/magenta_concrete_full",
    "tardis:decoration/roundels/concrete/lime_concrete_full",
    "tardis:decoration/roundels/concrete/cyan_concrete_full",
    "tardis:decoration/roundels/planks/warped_planks_full",
    "tardis:decoration/roundels/planks/oak_planks_full",
    "tardis:decoration/roundels/planks/crimson_planks_full",
    "tardis:decoration/roundels/planks/acacia_planks_full",
    "tardis:decoration/roundels/planks/dark_oak_planks_full",
    "tardis:decoration/roundels/planks/jungle_planks_full",
    "tardis:decoration/roundels/planks/spruce_planks_full",
    "tardis:decoration/roundels/planks/birch_planks_full",
    "tardis:decoration/roundels/terracotta/black_terracotta_full",
    "tardis:decoration/roundels/terracotta/light_gray_terracotta_full",
    "tardis:decoration/roundels/terracotta/lime_terracotta_full",
    "tardis:decoration/roundels/terracotta/blue_terracotta_full",
    "tardis:decoration/roundels/terracotta/pink_terracotta_full",
    "tardis:decoration/roundels/terracotta/gray_terracotta_full",
    "tardis:decoration/roundels/terracotta/green_terracotta_full",
    "tardis:decoration/roundels/terracotta/white_terracotta_full",
    "tardis:decoration/roundels/terracotta/purple_terracotta_full",
    "tardis:decoration/roundels/terracotta/brown_terracotta_full",
    "tardis:decoration/roundels/terracotta/cyan_terracotta_full",
    "tardis:decoration/roundels/terracotta/red_terracotta_full",
    "tardis:decoration/roundels/terracotta/light_blue_terracotta_full",
    "tardis:decoration/roundels/terracotta/orange_terracotta_full",
    "tardis:decoration/roundels/terracotta/yellow_terracotta_full",
    "tardis:decoration/roundels/terracotta/magenta_terracotta_full",
    "tardis:decoration/roundels/stone/stone_bricks_full",
    "tardis:decoration/roundels/stone/smooth_stone_full",
    "tardis:decoration/roundels/stone/prismarine_bricks_full",
    "tardis:decoration/roundels/stone/gilded_blackstone_full",
    "tardis:decoration/roundels/stone/polished_blackstone_full",
    "tardis:decoration/roundels/stone/polished_granite_full",
    "tardis:decoration/roundels/stone/polished_andesite_full",
    "tardis:decoration/roundels/stone/end_stone_full",
    "tardis:decoration/roundels/stone/end_stone_bricks_full",
    "tardis:decoration/roundels/stone/polished_diorite_full",
    "tardis:decoration/roundels/stone/cut_sandstone_full",
    "tardis:decoration/roundels/stone/polished_basalt_full",
    "tardis:decoration/roundels/stone/sandstone_full",
    "tardis:decoration/roundels/stone/cut_red_sandstone_full",
    "tardis:decoration/roundels/stone/polished_blackstone_bricks_full",
    "tardis:decoration/roundels/misc/alabaster_full",
    "tardis:decoration/roundels/misc/tech_wall_lamp_full"
  ]
}