{
  "type": "minecraft:block",
  "pools": [
    {
      "bonus_rolls": 0.0,
      "conditions": [
        {
          "condition": "minecraft:survives_explosion"
        }
      ],
      "entries": [
        {
          "type": "minecraft:item",
          "name": "tardis:decoration/roundels/planks/oak_planks_offset"
        }
      ],
      "rolls": 1.0
    }
  ]
}