{
  "parent": "minecraft:block/inner_stairs",
  "textures": {
    "bottom": "tardis:block/decoration/tungsten/tungsten_plate",
    "side": "tardis:block/decoration/tungsten/tungsten_plate",
    "top": "tardis:block/decoration/tungsten/tungsten_plate"
  }
}