{
  "required": true,
  "package": "net.tardis.mixins",
  "compatibilityLevel": "JAVA_17",
  "refmap": "tardis.refmap.json",
  "mixins": [
    "UnlimitStructureBlock"
  ],
  "client": [
  ],
  "minVersion": "0.8"
}