{
  "type": "tardis:quantiscope/crafting",
  "main_component": {
    "item": "tardis:components/interstitial_antenna"
  },
  "other_ingredients": [
    {
      "item": "tardis:exo_circuits"
    },
    {
      "item": "tardis:xion_lens"
    },
    {
      "item": "minecraft:lightning_rod"
    }
  ],
  "result": {
    "item": "tardis:components/nav_com"
  }
}