{
  "type": "tardis:quantiscope/crafting",
  "main_component": {
    "item": "tardis:exo_circuits"
  },
  "other_ingredients": [
    {
      "tag": "forge:obsidian"
    },
    {
      "item": "tardis:xion_lens"
    },
    {
      "tag": "forge:obsidian"
    },
    {
      "item": "tardis:xion_lens"
    }
  ],
  "result": {
    "item": "tardis:components/stabilizer"
  }
}