{
  "type": "tardis:quantiscope/crafting",
  "main_component": {
    "item": "tardis:components/demat_circuit"
  },
  "other_ingredients": [
    {
      "item": "minecraft:lightning_rod"
    },
    {
      "item": "tardis:xion_lens"
    },
    {
      "tag": "forge:barrels"
    },
    {
      "item": "minecraft:lightning_rod"
    },
    {
      "item": "tardis:xion_lens"
    }
  ],
  "result": {
    "count": 2,
    "item": "tardis:roundel_tap"
  }
}