{
  "type": "tardis:quantiscope/crafting",
  "main_component": {
    "tag": "forge:barrels"
  },
  "other_ingredients": [
    {
      "item": "tardis:exo_circuits"
    },
    {
      "item": "tardis:components/demat_circuit"
    },
    {
      "item": "tardis:data_matrix"
    },
    {
      "item": "tardis:exo_circuits"
    },
    {
      "item": "tardis:exo_circuits"
    }
  ],
  "result": {
    "item": "tardis:scoop_vault"
  }
}