{
  "fly": {
    "sound": {
      "sound_id": "tardis:default_tardis_loop"
    },
    "time": 40
  },
  "land": {
    "sound": {
      "sound_id": "tardis:default_tardis_land"
    },
    "time": 224
  },
  "takeoff": {
    "sound": {
      "sound_id": "tardis:default_tardis_takeoff"
    },
    "time": 366
  }
}