{
  "fly": {
    "sound": {
      "sound_id": "tardis:default_tardis_loop"
    },
    "time": 40
  },
  "land": {
    "sound": {
      "sound_id": "tardis:junk_tardis_land"
    },
    "time": 234
  },
  "takeoff": {
    "sound": {
      "sound_id": "tardis:junk_tardis_takeoff"
    },
    "time": 354
  }
}