{
  "values": [
    "tardis:artron_capacitors/leaky",
    "tardis:circuit_plate",
    "tardis:crystal_vials",
    "tardis:tools/diagnostic_tool",
    "tardis:exo_circuits",
    "tardis:tools/piston_hammer",
    "tardis:tools/welding_torch",
    "tardis:mercury_bottle",
    "tardis:components/demat_circuit",
    "tardis:manual",
    "tardis:keys/pirate",
    "tardis:keys/gallifreyan",
    "tardis:cinnabar",
    "tardis:components/demat_circuit",
    "tardis:manual",
    "tardis:xion_lens",
    "tardis:data_crystal",
    "tardis:artron_capacitors/basic",
    "tardis:artron_capacitors/mid",
    "tardis:artron_capacitors/high",
    "tardis:tools/sonic",
    "tardis:crystal_vials_mercury",
    "tardis:tools/stattenheim_remote",
    "tardis:upgrages/base",
    "tardis:upgrades/nano_gene",
    "tardis:upgrades/laser_miner",
    "tardis:upgrades/energy_syphon",
    "tardis:tea",
    "tardis:upgrades/remote_circuit",
    "tardis:burnt_circuits",
    "tardis:upgrades/atrium",
    "tardis:records/first_enter",
    "tardis:upgrades/sonic/demat",
    "tardis:components/demat_circuit",
    "tardis:components/fluid_links",
    "tardis:components/chameleon_circuit",
    "tardis:components/interstitial_antenna",
    "tardis:components/nav_com",
    "tardis:components/shield_generator",
    "tardis:components/stabilizer",
    "tardis:components/temporal_grace",
    "tardis:drafting_table",
    "tardis:steam_engine",
    "tardis:g8_console",
    "tardis:neuveau_console",
    "tardis:steam_broken_exterior",
    "tardis:steam_monitor",
    "tardis:steam_console",
    "tardis:interior_door",
    "tardis:alembic",
    "tardis:data_matrix",
    "tardis:ars_panel",
    "tardis:galvanic_console",
    "tardis:xion_block",
    "tardis:xion",
    "tardis:ars_panel",
    "tardis:eye_monitor",
    "tardis:rca_monitor",
    "tardis:ars_egg",
    "tardis:roof_engine",
    "tardis:matter_buffer",
    "tardis:scoop_vault",
    "tardis:rift_collector",
    "tardis:rift_pylon",
    "tardis:quantiscope",
    "tardis:nemo_console",
    "tardis:waypoint_banks",
    "tardis:atrium",
    "tardis:atrium_master",
    "tardis:item_plaque",
    "tardis:decoration/big_door",
    "tardis:roundel_tap",
    "tardis:variable_monitor",
    "tardis:alembic_still",
    "tardis:machines/fabricator",
    "tardis:tt_cap_broken",
    "tardis:landing_pad",
    "tardis:decoration/railing_steam",
    "tardis:decoration/railing_alabaster",
    "tardis:decoration/railing_tungsten"
  ]
}