{
  "type": "tardis:quantiscope/crafting",
  "main_component": {
    "item": "minecraft:lightning_rod"
  },
  "other_ingredients": [
    {
      "item": "tardis:exo_circuits"
    },
    {
      "item": "minecraft:lightning_rod"
    },
    {
      "item": "tardis:exo_circuits"
    },
    {
      "tag": "forge:ingots/iron"
    },
    {
      "item": "tardis:data_matrix"
    }
  ],
  "result": {
    "item": "tardis:rift_pylon"
  }
}