{
  "type": "tardis:quantiscope/crafting",
  "main_component": {
    "item": "tardis:data_matrix"
  },
  "other_ingredients": [
    {
      "item": "tardis:data_crystal"
    },
    {
      "tag": "forge:ingots/iron"
    },
    {
      "item": "tardis:xion_lens"
    },
    {
      "item": "tardis:data_crystal"
    },
    {
      "tag": "forge:ingots/iron"
    }
  ],
  "result": {
    "item": "tardis:waypoint_banks"
  }
}