{
  "type": "tardis:like_use_item",
  "liked_items": [
    {
      "item": {
        "item": "minecraft:baked_potato"
      },
      "loyalty": 10
    },
    {
      "item": {
        "item": "minecraft:cooked_beef"
      },
      "loyalty": 10
    },
    {
      "item": {
        "item": "minecraft:cooked_chicken"
      },
      "loyalty": 10
    },
    {
      "item": {
        "item": "minecraft:cake"
      },
      "loyalty": 25
    },
    {
      "item": {
        "item": "minecraft:cocoa_beans"
      },
      "loyalty": 5
    }
  ],
  "liked_used": [
    {
      "item": {
        "item": "minecraft:cookie"
      },
      "loyalty": 10,
      "mood": 10
    }
  ]
}