{
  "type": "tardis:like_biome",
  "liked_biome": [
    {
      "tag": "minecraft:is_nether"
    },
    {
      "tag": "forge:is_hot"
    }
  ],
  "liked_items": [
    {
      "item": {
        "item": "minecraft:lava_bucket"
      },
      "loyalty": 20
    },
    {
      "item": {
        "item": "minecraft:magma_block"
      },
      "loyalty": 10
    },
    {
      "item": {
        "item": "minecraft:campfire"
      },
      "loyalty": 5
    }
  ]
}