{
  "values": [
    "tardis:structure_block",
    "tardis:g8_console",
    "tardis:steam_console",
    "tardis:neuveau_console",
    "tardis:galvanic_console",
    "tardis:nemo_console",
    "tardis:interior_door",
    "tardis:steam_exterior",
    "tardis:tt_capsule",
    "tardis:police_box",
    "tardis:chameleon_exterior",
    "tardis:coffin_exterior",
    "tardis:octa_exterior",
    "tardis:trunk_exterior",
    "tardis:spruce_exterior",
    "tardis:chameleon_exterior_auxillary",
    "tardis:steam_broken_exterior",
    "tardis:tt_cap_broken",
    "tardis:drafting_table",
    "tardis:mutiblock",
    "tardis:exterior_axillary",
    "tardis:steam_monitor",
    "tardis:rca_monitor",
    "tardis:eye_monitor",
    "tardis:variable_monitor",
    "tardis:steam_engine",
    "tardis:roof_engine",
    "tardis:xion",
    "tardis:data_matrix",
    "tardis:xion_block",
    "tardis:atrium",
    "tardis:atrium_master",
    "tardis:alembic",
    "tardis:alembic_still",
    "tardis:ars_panel",
    "tardis:ars_egg",
    "tardis:quantiscope",
    "tardis:rift_pylon",
    "tardis:rift_collector",
    "tardis:matter_buffer",
    "tardis:scoop_vault",
    "tardis:waypoint_banks",
    "tardis:disguised_block",
    "tardis:roundel_tap",
    "tardis:landing_pad",
    "tardis:multi_redir_fluid",
    "tardis:machines/fabricator",
    "tardis:teleport_tube",
    "tardis:mercury_still",
    "tardis:biomass",
    "tardis:decoration/foam_pipes",
    "tardis:decoration/metal_grate",
    "tardis:decoration/metal_grate_slab",
    "tardis:decoration/metal_grate_solid",
    "tardis:decoration/metal_grate_trapdoor",
    "tardis:decoration/tungsten/tungsten",
    "tardis:decoration/tungsten/tungsten_runner_lights",
    "tardis:decoration/tungsten/tungsten_pattern",
    "tardis:decoration/tungsten/tungsten_pipes",
    "tardis:decoration/tungsten/tungsten_plate",
    "tardis:decoration/tungsten/tungsten_plate_slab",
    "tardis:decoration/tungsten/tungsten_plate_small",
    "tardis:decoration/tungsten/tungsten_screen",
    "tardis:decoration/wire_hang",
    "tardis:decoration/alabaster",
    "tardis:decoration/alabaster_tiles_large",
    "tardis:decoration/alabaster_pillar",
    "tardis:decoration/alabaster_tiles_small",
    "tardis:decoration/alabaster/stairs",
    "tardis:decoration/alabaster/wall",
    "tardis:decoration/alabaster/pillar_wall",
    "tardis:decoration/alabaster/slab",
    "tardis:decoration/alabaster/big_tiles",
    "tardis:decoration/alabaster/runner_lights",
    "tardis:decoration/alabaster/bookshelf",
    "tardis:decoration/alabaster/pipes",
    "tardis:decoration/alabaster/screen",
    "tardis:decoration/tech_struts",
    "tardis:decoration/tungsten/stair",
    "tardis:decoration/tungsten/stair_small_plates",
    "tardis:decoration/blinking_lights",
    "tardis:holo_ladder",
    "tardis:steam_grate",
    "tardis:decoration/ebony_bookshelf",
    "tardis:decoration/steel_hex_offset",
    "tardis:decoration/steel_hex",
    "tardis:decoration/moon_base_glass",
    "tardis:decoration/dedication_plaque",
    "tardis:comfy_chair_red",
    "tardis:comfy_chair_green",
    "tardis:item_plaque",
    "tardis:alabaster_grate",
    "tardis:decoration/tungsten_grate",
    "tardis:decoration/big_door",
    "tardis:decoration/tungsten_small_plate_slab",
    "tardis:decoration/coral",
    "tardis:decoration/coral_slab",
    "tardis:decoration/coral_stairs",
    "tardis:decoration/coral_wall",
    "tardis:decoration/metal_grate_wall",
    "tardis:decoration/railing_steam",
    "tardis:decoration/railing_tungsten",
    "tardis:decoration/railing_alabaster",
    "tardis:renderer_test",
    "tardis:decoration/roundels/stripped/dark_oak_stripped_full",
    "tardis:decoration/roundels/stripped/acacia_stripped_full",
    "tardis:decoration/roundels/stripped/warped_stripped_full",
    "tardis:decoration/roundels/stripped/acacia_stripped_offset",
    "tardis:decoration/roundels/stripped/crimson_stripped_full",
    "tardis:decoration/roundels/stripped/warped_stripped_offset",
    "tardis:decoration/roundels/stripped/oak_stripped_full",
    "tardis:decoration/roundels/stripped/spruce_stripped_offset",
    "tardis:decoration/roundels/stripped/birch_stripped_offset",
    "tardis:decoration/roundels/stripped/birch_stripped_full",
    "tardis:decoration/roundels/stripped/jungle_stripped_full",
    "tardis:decoration/roundels/stripped/oak_stripped_offset",
    "tardis:decoration/roundels/stripped/crimson_stripped_offset",
    "tardis:decoration/roundels/stripped/dark_oak_stripped_offset",
    "tardis:decoration/roundels/stripped/jungle_stripped_offset",
    "tardis:decoration/roundels/stripped/spruce_stripped_full",
    "tardis:decoration/roundels/misc/nether_wart_block_offset",
    "tardis:decoration/roundels/misc/nether_bricks_offset",
    "tardis:decoration/roundels/misc/nether_bricks_full",
    "tardis:decoration/roundels/misc/quartz_bricks_offset",
    "tardis:decoration/roundels/misc/quartz_pillar_offset",
    "tardis:decoration/roundels/misc/chiseled_quartz_block_full",
    "tardis:decoration/roundels/misc/quartz_pillar_full",
    "tardis:decoration/roundels/misc/chiseled_quartz_block_offset",
    "tardis:decoration/roundels/misc/purpur_bricks_offset",
    "tardis:decoration/roundels/misc/red_nether_bricks_full",
    "tardis:decoration/roundels/misc/purpur_pillar_full",
    "tardis:decoration/roundels/misc/nether_wart_block_full",
    "tardis:decoration/roundels/misc/red_nether_bricks_offset",
    "tardis:decoration/roundels/misc/quartz_bricks_full",
    "tardis:decoration/roundels/misc/chiseled_quartz_block_top_full",
    "tardis:decoration/roundels/misc/chiseled_quartz_block_top_offset",
    "tardis:decoration/roundels/misc/purpur_bricks_full",
    "tardis:decoration/roundels/misc/bone_block_full",
    "tardis:decoration/roundels/misc/purpur_pillar_offset",
    "tardis:decoration/roundels/misc/bone_block_offset",
    "tardis:decoration/roundels/concrete/light_blue_concrete_full",
    "tardis:decoration/roundels/concrete/light_blue_concrete_offset",
    "tardis:decoration/roundels/concrete/black_concrete_full",
    "tardis:decoration/roundels/concrete/orange_concrete_full",
    "tardis:decoration/roundels/concrete/purple_concrete_full",
    "tardis:decoration/roundels/concrete/red_concrete_offset",
    "tardis:decoration/roundels/concrete/green_concrete_full",
    "tardis:decoration/roundels/concrete/yellow_concrete_full",
    "tardis:decoration/roundels/concrete/gray_concrete_offset",
    "tardis:decoration/roundels/concrete/orange_concrete_offset",
    "tardis:decoration/roundels/concrete/brown_concrete_full",
    "tardis:decoration/roundels/concrete/pink_concrete_full",
    "tardis:decoration/roundels/concrete/green_concrete_offset",
    "tardis:decoration/roundels/concrete/white_concrete_full",
    "tardis:decoration/roundels/concrete/pink_concrete_offset",
    "tardis:decoration/roundels/concrete/gray_concrete_full",
    "tardis:decoration/roundels/concrete/red_concrete_full",
    "tardis:decoration/roundels/concrete/blue_concrete_full",
    "tardis:decoration/roundels/concrete/light_gray_concrete_full",
    "tardis:decoration/roundels/concrete/brown_concrete_offset",
    "tardis:decoration/roundels/concrete/black_concrete_offset",
    "tardis:decoration/roundels/concrete/blue_concrete_offset",
    "tardis:decoration/roundels/concrete/magenta_concrete_offset",
    "tardis:decoration/roundels/concrete/yellow_concrete_offset",
    "tardis:decoration/roundels/concrete/lime_concrete_offset",
    "tardis:decoration/roundels/concrete/purple_concrete_offset",
    "tardis:decoration/roundels/concrete/white_concrete_offset",
    "tardis:decoration/roundels/concrete/magenta_concrete_full",
    "tardis:decoration/roundels/concrete/light_gray_concrete_offset",
    "tardis:decoration/roundels/concrete/lime_concrete_full",
    "tardis:decoration/roundels/concrete/cyan_concrete_full",
    "tardis:decoration/roundels/concrete/cyan_concrete_offset",
    "tardis:decoration/roundels/planks/warped_planks_full",
    "tardis:decoration/roundels/planks/crimson_planks_offset",
    "tardis:decoration/roundels/planks/oak_planks_full",
    "tardis:decoration/roundels/planks/acacia_planks_offset",
    "tardis:decoration/roundels/planks/dark_oak_planks_offset",
    "tardis:decoration/roundels/planks/crimson_planks_full",
    "tardis:decoration/roundels/planks/acacia_planks_full",
    "tardis:decoration/roundels/planks/dark_oak_planks_full",
    "tardis:decoration/roundels/planks/oak_planks_offset",
    "tardis:decoration/roundels/planks/jungle_planks_full",
    "tardis:decoration/roundels/planks/spruce_planks_full",
    "tardis:decoration/roundels/planks/jungle_planks_offset",
    "tardis:decoration/roundels/planks/spruce_planks_offset",
    "tardis:decoration/roundels/planks/birch_planks_offset",
    "tardis:decoration/roundels/planks/birch_planks_full",
    "tardis:decoration/roundels/planks/warped_planks_offset",
    "tardis:decoration/roundels/terracotta/yellow_terracotta_offset",
    "tardis:decoration/roundels/terracotta/black_terracotta_full",
    "tardis:decoration/roundels/terracotta/red_terracotta_offset",
    "tardis:decoration/roundels/terracotta/black_terracotta_offset",
    "tardis:decoration/roundels/terracotta/light_gray_terracotta_full",
    "tardis:decoration/roundels/terracotta/lime_terracotta_full",
    "tardis:decoration/roundels/terracotta/blue_terracotta_full",
    "tardis:decoration/roundels/terracotta/gray_terracotta_offset",
    "tardis:decoration/roundels/terracotta/lime_terracotta_offset",
    "tardis:decoration/roundels/terracotta/pink_terracotta_full",
    "tardis:decoration/roundels/terracotta/light_blue_terracotta_offset",
    "tardis:decoration/roundels/terracotta/white_terracotta_offset",
    "tardis:decoration/roundels/terracotta/pink_terracotta_offset",
    "tardis:decoration/roundels/terracotta/gray_terracotta_full",
    "tardis:decoration/roundels/terracotta/green_terracotta_full",
    "tardis:decoration/roundels/terracotta/light_gray_terracotta_offset",
    "tardis:decoration/roundels/terracotta/white_terracotta_full",
    "tardis:decoration/roundels/terracotta/purple_terracotta_full",
    "tardis:decoration/roundels/terracotta/brown_terracotta_full",
    "tardis:decoration/roundels/terracotta/magenta_terracotta_offset",
    "tardis:decoration/roundels/terracotta/cyan_terracotta_full",
    "tardis:decoration/roundels/terracotta/brown_terracotta_offset",
    "tardis:decoration/roundels/terracotta/red_terracotta_full",
    "tardis:decoration/roundels/terracotta/light_blue_terracotta_full",
    "tardis:decoration/roundels/terracotta/orange_terracotta_full",
    "tardis:decoration/roundels/terracotta/orange_terracotta_offset",
    "tardis:decoration/roundels/terracotta/yellow_terracotta_full",
    "tardis:decoration/roundels/terracotta/cyan_terracotta_offset",
    "tardis:decoration/roundels/terracotta/green_terracotta_offset",
    "tardis:decoration/roundels/terracotta/blue_terracotta_offset",
    "tardis:decoration/roundels/terracotta/magenta_terracotta_full",
    "tardis:decoration/roundels/terracotta/purple_terracotta_offset",
    "tardis:decoration/roundels/stone/stone_bricks_full",
    "tardis:decoration/roundels/stone/polished_blackstone_bricks_offset",
    "tardis:decoration/roundels/stone/sandstone_offset",
    "tardis:decoration/roundels/stone/smooth_stone_full",
    "tardis:decoration/roundels/stone/prismarine_bricks_full",
    "tardis:decoration/roundels/stone/gilded_blackstone_full",
    "tardis:decoration/roundels/stone/polished_blackstone_full",
    "tardis:decoration/roundels/stone/cut_red_sandstone_offset",
    "tardis:decoration/roundels/stone/end_stone_offset",
    "tardis:decoration/roundels/stone/polished_granite_full",
    "tardis:decoration/roundels/stone/polished_andesite_full",
    "tardis:decoration/roundels/stone/cut_sandstone_offset",
    "tardis:decoration/roundels/stone/end_stone_full",
    "tardis:decoration/roundels/stone/end_stone_bricks_full",
    "tardis:decoration/roundels/stone/stone_bricks_offset",
    "tardis:decoration/roundels/stone/end_stone_bricks_offset",
    "tardis:decoration/roundels/stone/polished_diorite_full",
    "tardis:decoration/roundels/stone/polished_andesite_offset",
    "tardis:decoration/roundels/stone/cut_sandstone_full",
    "tardis:decoration/roundels/stone/polished_blackstone_offset",
    "tardis:decoration/roundels/stone/polished_basalt_full",
    "tardis:decoration/roundels/stone/polished_basalt_offset",
    "tardis:decoration/roundels/stone/gilded_blackstone_offset",
    "tardis:decoration/roundels/stone/sandstone_full",
    "tardis:decoration/roundels/stone/cut_red_sandstone_full",
    "tardis:decoration/roundels/stone/polished_granite_offset",
    "tardis:decoration/roundels/stone/polished_blackstone_bricks_full",
    "tardis:decoration/roundels/stone/polished_diorite_offset",
    "tardis:decoration/roundels/stone/smooth_stone_offset",
    "tardis:decoration/roundels/stone/prismarine_bricks_offset",
    "tardis:decoration/roundels/misc/alabaster_full",
    "tardis:decoration/roundels/misc/alabaster_offset",
    "tardis:decoration/roundels/misc/tech_wall_lamp_full",
    "tardis:decoration/roundels/misc/tech_wall_lamp_offset",
    "tardis:decoration/roundels/misc/coralised",
    "tardis:decoration/roundels/misc/coralised_large",
    "tardis:decoration/roundels/misc/coralised_small"
  ]
}