{
	"credit": "Made with Blockbench",
	"texture_size": [32, 32],
	"textures": {
		"17": "tardis:item/sonics/mk7_handle"
	},
	"elements": [
		{
			"name": "octagon",
			"from": [3.80043, 2.49255, 6.85017],
			"to": [4.36044, 3.84453, 7.48858],
			"rotation": {"angle": 45, "axis": "z", "origin": [8, 7.08811, 7.15184]},
			"faces": {
				"north": {"uv": [5.5, 10, 6, 10.5], "texture": "#17"},
				"east": {"uv": [6, 10, 6.5, 10.5], "texture": "#17"},
				"south": {"uv": [6.5, 10, 7, 10.5], "texture": "#17"},
				"west": {"uv": [7, 10, 7.5, 10.5], "texture": "#17"},
				"up": {"uv": [8, 10.5, 7.5, 10], "texture": "#17"},
				"down": {"uv": [8.5, 10, 8, 10.5], "texture": "#17"}
			}
		},
		{
			"name": "octagon",
			"from": [7.71999, 0.86901, 6.85017],
			"to": [8.28001, 2.22099, 7.48858],
			"rotation": {"angle": 0, "axis": "y", "origin": [8, 7.08811, 7.15184]},
			"faces": {
				"north": {"uv": [8.5, 10, 9, 10.5], "texture": "#17"},
				"east": {"uv": [9, 10, 9.5, 10.5], "texture": "#17"},
				"south": {"uv": [10, 10, 10.5, 10.5], "texture": "#17"},
				"west": {"uv": [10, 0, 10.5, 0.5], "texture": "#17"},
				"up": {"uv": [10.5, 1.5, 10, 1], "texture": "#17"},
				"down": {"uv": [10.5, 1.5, 10, 2], "texture": "#17"}
			}
		},
		{
			"name": "octagon",
			"from": [3.40444, 2.88853, 6.85017],
			"to": [4.75643, 3.44854, 7.48858],
			"rotation": {"angle": 45, "axis": "z", "origin": [8, 7.08811, 7.15184]},
			"faces": {
				"north": {"uv": [10, 2, 10.5, 2.5], "texture": "#17"},
				"east": {"uv": [10, 2.5, 10.5, 3], "texture": "#17"},
				"south": {"uv": [10, 3, 10.5, 3.5], "texture": "#17"},
				"west": {"uv": [10, 3.5, 10.5, 4], "texture": "#17"},
				"up": {"uv": [10.5, 4.5, 10, 4], "texture": "#17"},
				"down": {"uv": [10.5, 4.5, 10, 5], "texture": "#17"}
			}
		},
		{
			"name": "octagon",
			"from": [7.32401, 1.26499, 6.85017],
			"to": [8.67599, 1.82501, 7.48858],
			"rotation": {"angle": 0, "axis": "y", "origin": [8, 7.08811, 7.15184]},
			"faces": {
				"north": {"uv": [10, 5, 10.5, 5.5], "texture": "#17"},
				"east": {"uv": [10, 5.5, 10.5, 6], "texture": "#17"},
				"south": {"uv": [10, 6, 10.5, 6.5], "texture": "#17"},
				"west": {"uv": [10, 6.5, 10.5, 7], "texture": "#17"},
				"up": {"uv": [10.5, 7.5, 10, 7], "texture": "#17"},
				"down": {"uv": [10.5, 8.5, 10, 9], "texture": "#17"}
			}
		},
		{
			"name": "octagon",
			"from": [1.60042, 2.98893, 7.42668],
			"to": [2.4538, 5.04917, 8.20582],
			"rotation": {"angle": 45, "axis": "z", "origin": [8, 9.99194, 5.94458]},
			"faces": {
				"north": {"uv": [3, 1, 3.5, 2], "texture": "#17"},
				"east": {"uv": [3, 3.5, 3.5, 4.5], "texture": "#17"},
				"south": {"uv": [3.5, 3.5, 4, 4.5], "texture": "#17"},
				"west": {"uv": [3.5, 1, 4, 2], "texture": "#17"},
				"up": {"uv": [10.5, 10, 10, 9.5], "texture": "#17"},
				"down": {"uv": [0.5, 10.5, 0, 11], "texture": "#17"}
			}
		},
		{
			"name": "octagon",
			"from": [7.57331, 0.51488, 7.42668],
			"to": [8.42669, 2.57512, 8.20582],
			"rotation": {"angle": 0, "axis": "y", "origin": [8, 9.99194, 5.94458]},
			"faces": {
				"north": {"uv": [1, 4, 1.5, 5], "texture": "#17"},
				"east": {"uv": [1.5, 4, 2, 5], "texture": "#17"},
				"south": {"uv": [4, 4, 4.5, 5], "texture": "#17"},
				"west": {"uv": [4, 0, 4.5, 1], "texture": "#17"},
				"up": {"uv": [1, 11, 0.5, 10.5], "texture": "#17"},
				"down": {"uv": [1.5, 10.5, 1, 11], "texture": "#17"}
			}
		},
		{
			"name": "octagon",
			"from": [0.99699, 3.59236, 7.42668],
			"to": [3.05723, 4.44574, 8.20582],
			"rotation": {"angle": 45, "axis": "z", "origin": [8, 9.99194, 5.94458]},
			"faces": {
				"north": {"uv": [3, 2.5, 4, 3], "texture": "#17"},
				"east": {"uv": [1.5, 10.5, 2, 11], "texture": "#17"},
				"south": {"uv": [4, 1, 5, 1.5], "texture": "#17"},
				"west": {"uv": [2, 10.5, 2.5, 11], "texture": "#17"},
				"up": {"uv": [5, 2, 4, 1.5], "texture": "#17"},
				"down": {"uv": [5, 2, 4, 2.5], "texture": "#17"}
			}
		},
		{
			"name": "octagon",
			"from": [6.96988, 1.11831, 7.42668],
			"to": [9.03012, 1.97169, 8.20582],
			"rotation": {"angle": 0, "axis": "y", "origin": [8, 9.99194, 5.94458]},
			"faces": {
				"north": {"uv": [4, 2.5, 5, 3], "texture": "#17"},
				"east": {"uv": [2.5, 10.5, 3, 11], "texture": "#17"},
				"south": {"uv": [4, 3.5, 5, 4], "texture": "#17"},
				"west": {"uv": [3, 10.5, 3.5, 11], "texture": "#17"},
				"up": {"uv": [3, 5, 2, 4.5], "texture": "#17"},
				"down": {"uv": [4, 4.5, 3, 5], "texture": "#17"}
			}
		},
		{
			"name": "octagon",
			"from": [1.60042, 2.98893, 13.42668],
			"to": [2.4538, 5.04917, 14.20582],
			"rotation": {"angle": 45, "axis": "z", "origin": [8, 9.99194, 5.94458]},
			"faces": {
				"north": {"uv": [4.5, 4.5, 5, 5.5], "texture": "#17"},
				"east": {"uv": [4.5, 0, 5, 1], "texture": "#17"},
				"south": {"uv": [0, 5, 0.5, 6], "texture": "#17"},
				"west": {"uv": [0.5, 5, 1, 6], "texture": "#17"},
				"up": {"uv": [4, 11, 3.5, 10.5], "texture": "#17"},
				"down": {"uv": [4.5, 10.5, 4, 11], "texture": "#17"}
			}
		},
		{
			"name": "octagon",
			"from": [7.57331, 0.51488, 13.42668],
			"to": [8.42669, 2.57512, 14.20582],
			"rotation": {"angle": 0, "axis": "y", "origin": [8, 9.99194, 5.94458]},
			"faces": {
				"north": {"uv": [1, 5, 1.5, 6], "texture": "#17"},
				"east": {"uv": [1.5, 5, 2, 6], "texture": "#17"},
				"south": {"uv": [2, 5, 2.5, 6], "texture": "#17"},
				"west": {"uv": [2.5, 5, 3, 6], "texture": "#17"},
				"up": {"uv": [5, 11, 4.5, 10.5], "texture": "#17"},
				"down": {"uv": [5.5, 10.5, 5, 11], "texture": "#17"}
			}
		},
		{
			"name": "octagon",
			"from": [0.99699, 3.59236, 13.42668],
			"to": [3.05723, 4.44574, 14.20582],
			"rotation": {"angle": 45, "axis": "z", "origin": [8, 9.99194, 5.94458]},
			"faces": {
				"north": {"uv": [4.5, 4, 5.5, 4.5], "texture": "#17"},
				"east": {"uv": [5.5, 10.5, 6, 11], "texture": "#17"},
				"south": {"uv": [3, 5, 4, 5.5], "texture": "#17"},
				"west": {"uv": [6, 10.5, 6.5, 11], "texture": "#17"},
				"up": {"uv": [6, 5.5, 5, 5], "texture": "#17"},
				"down": {"uv": [6, 0, 5, 0.5], "texture": "#17"}
			}
		},
		{
			"name": "octagon",
			"from": [6.96988, 1.11831, 13.42668],
			"to": [9.03012, 1.97169, 14.20582],
			"rotation": {"angle": 0, "axis": "y", "origin": [8, 9.99194, 5.94458]},
			"faces": {
				"north": {"uv": [5, 0.5, 6, 1], "texture": "#17"},
				"east": {"uv": [6.5, 10.5, 7, 11], "texture": "#17"},
				"south": {"uv": [5, 1, 6, 1.5], "texture": "#17"},
				"west": {"uv": [7, 10.5, 7.5, 11], "texture": "#17"},
				"up": {"uv": [6, 2, 5, 1.5], "texture": "#17"},
				"down": {"uv": [6, 2, 5, 2.5], "texture": "#17"}
			}
		},
		{
			"name": "octagon",
			"from": [2.75234, 2.72902, 8.13181],
			"to": [3.45212, 4.41842, 9.25069],
			"rotation": {"angle": 45, "axis": "z", "origin": [8, 8.47149, 6.59648]},
			"faces": {
				"north": {"uv": [4, 5, 4.5, 6], "texture": "#17"},
				"east": {"uv": [5, 2.5, 5.5, 3.5], "texture": "#17"},
				"south": {"uv": [3, 5.5, 3.5, 6.5], "texture": "#17"},
				"west": {"uv": [3.5, 5.5, 4, 6.5], "texture": "#17"},
				"up": {"uv": [8, 11, 7.5, 10.5], "texture": "#17"},
				"down": {"uv": [8.5, 10.5, 8, 11], "texture": "#17"}
			}
		},
		{
			"name": "octagon",
			"from": [7.65011, 0.7003, 8.13181],
			"to": [8.34989, 2.3897, 9.25069],
			"rotation": {"angle": 0, "axis": "y", "origin": [8, 8.47149, 6.59648]},
			"faces": {
				"north": {"uv": [4.5, 5.5, 5, 6.5], "texture": "#17"},
				"east": {"uv": [5, 5.5, 5.5, 6.5], "texture": "#17"},
				"south": {"uv": [5.5, 5.5, 6, 6.5], "texture": "#17"},
				"west": {"uv": [5.5, 2.5, 6, 3.5], "texture": "#17"},
				"up": {"uv": [9, 11, 8.5, 10.5], "texture": "#17"},
				"down": {"uv": [9.5, 10.5, 9, 11], "texture": "#17"}
			}
		},
		{
			"name": "octagon",
			"from": [2.25753, 3.22384, 8.13181],
			"to": [3.94693, 3.92361, 9.25069],
			"rotation": {"angle": 45, "axis": "z", "origin": [8, 8.47149, 6.59648]},
			"faces": {
				"north": {"uv": [5, 3.5, 6, 4], "texture": "#17"},
				"east": {"uv": [9.5, 10.5, 10, 11], "texture": "#17"},
				"south": {"uv": [5, 4.5, 6, 5], "texture": "#17"},
				"west": {"uv": [10, 10.5, 10.5, 11], "texture": "#17"},
				"up": {"uv": [6.5, 4.5, 5.5, 4], "texture": "#17"},
				"down": {"uv": [1, 6, 0, 6.5], "texture": "#17"}
			}
		},
		{
			"name": "octagon",
			"from": [7.1553, 1.19511, 8.13181],
			"to": [8.8447, 1.89489, 9.25069],
			"rotation": {"angle": 0, "axis": "y", "origin": [8, 8.47149, 6.59648]},
			"faces": {
				"north": {"uv": [1, 6, 2, 6.5], "texture": "#17"},
				"east": {"uv": [10.5, 10.5, 11, 11], "texture": "#17"},
				"south": {"uv": [2, 6, 3, 6.5], "texture": "#17"},
				"west": {"uv": [10.5, 0, 11, 0.5], "texture": "#17"},
				"up": {"uv": [7, 6.5, 6, 6], "texture": "#17"},
				"down": {"uv": [7, 0, 6, 0.5], "texture": "#17"}
			}
		},
		{
			"name": "octagon",
			"from": [2.75234, 2.72902, 12.38181],
			"to": [3.45212, 4.41842, 13.50069],
			"rotation": {"angle": 45, "axis": "z", "origin": [8, 8.47149, 6.59648]},
			"faces": {
				"north": {"uv": [4, 6, 4.5, 7], "texture": "#17"},
				"east": {"uv": [6, 0.5, 6.5, 1.5], "texture": "#17"},
				"south": {"uv": [6, 1.5, 6.5, 2.5], "texture": "#17"},
				"west": {"uv": [6, 2.5, 6.5, 3.5], "texture": "#17"},
				"up": {"uv": [11, 1, 10.5, 0.5], "texture": "#17"},
				"down": {"uv": [11, 1, 10.5, 1.5], "texture": "#17"}
			}
		},
		{
			"name": "octagon",
			"from": [7.65011, 0.7003, 12.38181],
			"to": [8.34989, 2.3897, 13.50069],
			"rotation": {"angle": 0, "axis": "y", "origin": [8, 8.47149, 6.59648]},
			"faces": {
				"north": {"uv": [6, 4.5, 6.5, 5.5], "texture": "#17"},
				"east": {"uv": [0, 6.5, 0.5, 7.5], "texture": "#17"},
				"south": {"uv": [0.5, 6.5, 1, 7.5], "texture": "#17"},
				"west": {"uv": [1, 6.5, 1.5, 7.5], "texture": "#17"},
				"up": {"uv": [11, 2, 10.5, 1.5], "texture": "#17"},
				"down": {"uv": [11, 2, 10.5, 2.5], "texture": "#17"}
			}
		},
		{
			"name": "octagon",
			"from": [2.25753, 3.22384, 12.38181],
			"to": [3.94693, 3.92361, 13.50069],
			"rotation": {"angle": 45, "axis": "z", "origin": [8, 8.47149, 6.59648]},
			"faces": {
				"north": {"uv": [6, 3.5, 7, 4], "texture": "#17"},
				"east": {"uv": [10.5, 2.5, 11, 3], "texture": "#17"},
				"south": {"uv": [6, 5.5, 7, 6], "texture": "#17"},
				"west": {"uv": [10.5, 3, 11, 3.5], "texture": "#17"},
				"up": {"uv": [2.5, 7, 1.5, 6.5], "texture": "#17"},
				"down": {"uv": [3.5, 6.5, 2.5, 7], "texture": "#17"}
			}
		},
		{
			"name": "octagon",
			"from": [7.1553, 1.19511, 12.38181],
			"to": [8.8447, 1.89489, 13.50069],
			"rotation": {"angle": 0, "axis": "y", "origin": [8, 8.47149, 6.59648]},
			"faces": {
				"north": {"uv": [4.5, 6.5, 5.5, 7], "texture": "#17"},
				"east": {"uv": [10.5, 3.5, 11, 4], "texture": "#17"},
				"south": {"uv": [5.5, 6.5, 6.5, 7], "texture": "#17"},
				"west": {"uv": [10.5, 4, 11, 4.5], "texture": "#17"},
				"up": {"uv": [7.5, 7, 6.5, 6.5], "texture": "#17"},
				"down": {"uv": [7.5, 0.5, 6.5, 1], "texture": "#17"}
			}
		},
		{
			"name": "octagon",
			"from": [2.75234, 2.72902, 11.88181],
			"to": [3.45212, 4.41842, 12.25069],
			"rotation": {"angle": 45, "axis": "z", "origin": [8, 8.47149, 6.59648]},
			"faces": {
				"north": {"uv": [3.5, 6.5, 4, 7.5], "texture": "#17"},
				"east": {"uv": [6.5, 1, 7, 2], "texture": "#17"},
				"south": {"uv": [6.5, 2, 7, 3], "texture": "#17"},
				"west": {"uv": [6.5, 4, 7, 5], "texture": "#17"},
				"up": {"uv": [11, 5, 10.5, 4.5], "texture": "#17"},
				"down": {"uv": [11, 5, 10.5, 5.5], "texture": "#17"}
			}
		},
		{
			"name": "octagon",
			"from": [7.65011, 0.7003, 11.88181],
			"to": [8.34989, 2.3897, 12.25069],
			"rotation": {"angle": 0, "axis": "y", "origin": [8, 8.47149, 6.59648]},
			"faces": {
				"north": {"uv": [1.5, 7, 2, 8], "texture": "#17"},
				"east": {"uv": [2, 7, 2.5, 8], "texture": "#17"},
				"south": {"uv": [2.5, 7, 3, 8], "texture": "#17"},
				"west": {"uv": [3, 7, 3.5, 8], "texture": "#17"},
				"up": {"uv": [11, 6, 10.5, 5.5], "texture": "#17"},
				"down": {"uv": [11, 6, 10.5, 6.5], "texture": "#17"}
			}
		},
		{
			"name": "octagon",
			"from": [2.25753, 3.22384, 11.88181],
			"to": [3.94693, 3.92361, 12.25069],
			"rotation": {"angle": 45, "axis": "z", "origin": [8, 8.47149, 6.59648]},
			"faces": {
				"north": {"uv": [6.5, 3, 7.5, 3.5], "texture": "#17"},
				"east": {"uv": [10.5, 6.5, 11, 7], "texture": "#17"},
				"south": {"uv": [6.5, 5, 7.5, 5.5], "texture": "#17"},
				"west": {"uv": [10.5, 7, 11, 7.5], "texture": "#17"},
				"up": {"uv": [5, 7.5, 4, 7], "texture": "#17"},
				"down": {"uv": [6, 7, 5, 7.5], "texture": "#17"}
			}
		},
		{
			"name": "octagon",
			"from": [7.1553, 1.19511, 11.88181],
			"to": [8.8447, 1.89489, 12.25069],
			"rotation": {"angle": 0, "axis": "y", "origin": [8, 8.47149, 6.59648]},
			"faces": {
				"north": {"uv": [6, 7, 7, 7.5], "texture": "#17"},
				"east": {"uv": [10.5, 7.5, 11, 8], "texture": "#17"},
				"south": {"uv": [7, 7, 8, 7.5], "texture": "#17"},
				"west": {"uv": [10.5, 8, 11, 8.5], "texture": "#17"},
				"up": {"uv": [8, 0.5, 7, 0], "texture": "#17"},
				"down": {"uv": [8, 1, 7, 1.5], "texture": "#17"}
			}
		},
		{
			"name": "octagon",
			"from": [2.75234, 2.72902, 9.38181],
			"to": [3.45212, 4.41842, 9.75069],
			"rotation": {"angle": 45, "axis": "z", "origin": [8, 8.47149, 6.59648]},
			"faces": {
				"north": {"uv": [7, 1.5, 7.5, 2.5], "texture": "#17"},
				"east": {"uv": [7, 3.5, 7.5, 4.5], "texture": "#17"},
				"south": {"uv": [7, 5.5, 7.5, 6.5], "texture": "#17"},
				"west": {"uv": [0, 7.5, 0.5, 8.5], "texture": "#17"},
				"up": {"uv": [11, 9, 10.5, 8.5], "texture": "#17"},
				"down": {"uv": [11, 9, 10.5, 9.5], "texture": "#17"}
			}
		},
		{
			"name": "octagon",
			"from": [7.65011, 0.7003, 9.38181],
			"to": [8.34989, 2.3897, 9.75069],
			"rotation": {"angle": 0, "axis": "y", "origin": [8, 8.47149, 6.59648]},
			"faces": {
				"north": {"uv": [0.5, 7.5, 1, 8.5], "texture": "#17"},
				"east": {"uv": [1, 7.5, 1.5, 8.5], "texture": "#17"},
				"south": {"uv": [3.5, 7.5, 4, 8.5], "texture": "#17"},
				"west": {"uv": [4, 7.5, 4.5, 8.5], "texture": "#17"},
				"up": {"uv": [11, 10, 10.5, 9.5], "texture": "#17"},
				"down": {"uv": [11, 10, 10.5, 10.5], "texture": "#17"}
			}
		},
		{
			"name": "octagon",
			"from": [2.25753, 3.22384, 9.38181],
			"to": [3.94693, 3.92361, 9.75069],
			"rotation": {"angle": 45, "axis": "z", "origin": [8, 8.47149, 6.59648]},
			"faces": {
				"north": {"uv": [7, 2.5, 8, 3], "texture": "#17"},
				"east": {"uv": [0, 11, 0.5, 11.5], "texture": "#17"},
				"south": {"uv": [7, 4.5, 8, 5], "texture": "#17"},
				"west": {"uv": [0.5, 11, 1, 11.5], "texture": "#17"},
				"up": {"uv": [5.5, 8, 4.5, 7.5], "texture": "#17"},
				"down": {"uv": [6.5, 7.5, 5.5, 8], "texture": "#17"}
			}
		},
		{
			"name": "octagon",
			"from": [7.1553, 1.19511, 9.38181],
			"to": [8.8447, 1.89489, 9.75069],
			"rotation": {"angle": 0, "axis": "y", "origin": [8, 8.47149, 6.59648]},
			"faces": {
				"north": {"uv": [6.5, 7.5, 7.5, 8], "texture": "#17"},
				"east": {"uv": [1, 11, 1.5, 11.5], "texture": "#17"},
				"south": {"uv": [7.5, 7.5, 8.5, 8], "texture": "#17"},
				"west": {"uv": [1.5, 11, 2, 11.5], "texture": "#17"},
				"up": {"uv": [8.5, 1, 7.5, 0.5], "texture": "#17"},
				"down": {"uv": [8.5, 1.5, 7.5, 2], "texture": "#17"}
			}
		},
		{
			"name": "octagon",
			"from": [2.75234, 2.72902, 11.38181],
			"to": [3.45212, 4.41842, 11.75069],
			"rotation": {"angle": 45, "axis": "z", "origin": [8, 8.47149, 6.59648]},
			"faces": {
				"north": {"uv": [7.5, 3, 8, 4], "texture": "#17"},
				"east": {"uv": [7.5, 5, 8, 6], "texture": "#17"},
				"south": {"uv": [7.5, 6, 8, 7], "texture": "#17"},
				"west": {"uv": [1.5, 8, 2, 9], "texture": "#17"},
				"up": {"uv": [2.5, 11.5, 2, 11], "texture": "#17"},
				"down": {"uv": [3, 11, 2.5, 11.5], "texture": "#17"}
			}
		},
		{
			"name": "octagon",
			"from": [7.65011, 0.7003, 11.38181],
			"to": [8.34989, 2.3897, 11.75069],
			"rotation": {"angle": 0, "axis": "y", "origin": [8, 8.47149, 6.59648]},
			"faces": {
				"north": {"uv": [2, 8, 2.5, 9], "texture": "#17"},
				"east": {"uv": [2.5, 8, 3, 9], "texture": "#17"},
				"south": {"uv": [3, 8, 3.5, 9], "texture": "#17"},
				"west": {"uv": [4.5, 8, 5, 9], "texture": "#17"},
				"up": {"uv": [3.5, 11.5, 3, 11], "texture": "#17"},
				"down": {"uv": [4, 11, 3.5, 11.5], "texture": "#17"}
			}
		},
		{
			"name": "octagon",
			"from": [2.25753, 3.22384, 11.38181],
			"to": [3.94693, 3.92361, 11.75069],
			"rotation": {"angle": 45, "axis": "z", "origin": [8, 8.47149, 6.59648]},
			"faces": {
				"north": {"uv": [7.5, 2, 8.5, 2.5], "texture": "#17"},
				"east": {"uv": [4, 11, 4.5, 11.5], "texture": "#17"},
				"south": {"uv": [7.5, 4, 8.5, 4.5], "texture": "#17"},
				"west": {"uv": [4.5, 11, 5, 11.5], "texture": "#17"},
				"up": {"uv": [6, 8.5, 5, 8], "texture": "#17"},
				"down": {"uv": [7, 8, 6, 8.5], "texture": "#17"}
			}
		},
		{
			"name": "octagon",
			"from": [7.1553, 1.19511, 11.38181],
			"to": [8.8447, 1.89489, 11.75069],
			"rotation": {"angle": 0, "axis": "y", "origin": [8, 8.47149, 6.59648]},
			"faces": {
				"north": {"uv": [7, 8, 8, 8.5], "texture": "#17"},
				"east": {"uv": [5, 11, 5.5, 11.5], "texture": "#17"},
				"south": {"uv": [8, 8, 9, 8.5], "texture": "#17"},
				"west": {"uv": [5.5, 11, 6, 11.5], "texture": "#17"},
				"up": {"uv": [9, 0.5, 8, 0], "texture": "#17"},
				"down": {"uv": [9, 1, 8, 1.5], "texture": "#17"}
			}
		},
		{
			"name": "octagon",
			"from": [2.75234, 2.72902, 9.88181],
			"to": [3.45212, 4.41842, 10.25069],
			"rotation": {"angle": 45, "axis": "z", "origin": [8, 8.47149, 6.59648]},
			"faces": {
				"north": {"uv": [8, 2.5, 8.5, 3.5], "texture": "#17"},
				"east": {"uv": [8, 4.5, 8.5, 5.5], "texture": "#17"},
				"south": {"uv": [8, 5.5, 8.5, 6.5], "texture": "#17"},
				"west": {"uv": [8, 6.5, 8.5, 7.5], "texture": "#17"},
				"up": {"uv": [6.5, 11.5, 6, 11], "texture": "#17"},
				"down": {"uv": [7, 11, 6.5, 11.5], "texture": "#17"}
			}
		},
		{
			"name": "octagon",
			"from": [7.65011, 0.7003, 9.88181],
			"to": [8.34989, 2.3897, 10.25069],
			"rotation": {"angle": 0, "axis": "y", "origin": [8, 8.47149, 6.59648]},
			"faces": {
				"north": {"uv": [0, 8.5, 0.5, 9.5], "texture": "#17"},
				"east": {"uv": [0.5, 8.5, 1, 9.5], "texture": "#17"},
				"south": {"uv": [1, 8.5, 1.5, 9.5], "texture": "#17"},
				"west": {"uv": [3.5, 8.5, 4, 9.5], "texture": "#17"},
				"up": {"uv": [7.5, 11.5, 7, 11], "texture": "#17"},
				"down": {"uv": [8, 11, 7.5, 11.5], "texture": "#17"}
			}
		},
		{
			"name": "octagon",
			"from": [2.25753, 3.22384, 9.88181],
			"to": [3.94693, 3.92361, 10.25069],
			"rotation": {"angle": 45, "axis": "z", "origin": [8, 8.47149, 6.59648]},
			"faces": {
				"north": {"uv": [8, 3.5, 9, 4], "texture": "#17"},
				"east": {"uv": [8, 11, 8.5, 11.5], "texture": "#17"},
				"south": {"uv": [5, 8.5, 6, 9], "texture": "#17"},
				"west": {"uv": [8.5, 11, 9, 11.5], "texture": "#17"},
				"up": {"uv": [7, 9, 6, 8.5], "texture": "#17"},
				"down": {"uv": [8, 8.5, 7, 9], "texture": "#17"}
			}
		},
		{
			"name": "octagon",
			"from": [7.1553, 1.19511, 9.88181],
			"to": [8.8447, 1.89489, 10.25069],
			"rotation": {"angle": 0, "axis": "y", "origin": [8, 8.47149, 6.59648]},
			"faces": {
				"north": {"uv": [8, 8.5, 9, 9], "texture": "#17"},
				"east": {"uv": [9, 11, 9.5, 11.5], "texture": "#17"},
				"south": {"uv": [8.5, 0.5, 9.5, 1], "texture": "#17"},
				"west": {"uv": [9.5, 11, 10, 11.5], "texture": "#17"},
				"up": {"uv": [9.5, 2, 8.5, 1.5], "texture": "#17"},
				"down": {"uv": [9.5, 2, 8.5, 2.5], "texture": "#17"}
			}
		},
		{
			"name": "octagon",
			"from": [2.75234, 2.72902, 10.88181],
			"to": [3.45212, 4.41842, 11.25069],
			"rotation": {"angle": 45, "axis": "z", "origin": [8, 8.47149, 6.59648]},
			"faces": {
				"north": {"uv": [4, 8.5, 4.5, 9.5], "texture": "#17"},
				"east": {"uv": [8.5, 2.5, 9, 3.5], "texture": "#17"},
				"south": {"uv": [8.5, 4, 9, 5], "texture": "#17"},
				"west": {"uv": [8.5, 5, 9, 6], "texture": "#17"},
				"up": {"uv": [10.5, 11.5, 10, 11], "texture": "#17"},
				"down": {"uv": [11, 11, 10.5, 11.5], "texture": "#17"}
			}
		},
		{
			"name": "octagon",
			"from": [7.65011, 0.7003, 10.88181],
			"to": [8.34989, 2.3897, 11.25069],
			"rotation": {"angle": 0, "axis": "y", "origin": [8, 8.47149, 6.59648]},
			"faces": {
				"north": {"uv": [8.5, 6, 9, 7], "texture": "#17"},
				"east": {"uv": [8.5, 7, 9, 8], "texture": "#17"},
				"south": {"uv": [1.5, 9, 2, 10], "texture": "#17"},
				"west": {"uv": [2, 9, 2.5, 10], "texture": "#17"},
				"up": {"uv": [11.5, 11.5, 11, 11], "texture": "#17"},
				"down": {"uv": [11.5, 0, 11, 0.5], "texture": "#17"}
			}
		},
		{
			"name": "octagon",
			"from": [2.25753, 3.22384, 10.88181],
			"to": [3.94693, 3.92361, 11.25069],
			"rotation": {"angle": 45, "axis": "z", "origin": [8, 8.47149, 6.59648]},
			"faces": {
				"north": {"uv": [2.5, 9, 3.5, 9.5], "texture": "#17"},
				"east": {"uv": [11, 0.5, 11.5, 1], "texture": "#17"},
				"south": {"uv": [4.5, 9, 5.5, 9.5], "texture": "#17"},
				"west": {"uv": [11, 1, 11.5, 1.5], "texture": "#17"},
				"up": {"uv": [6.5, 9.5, 5.5, 9], "texture": "#17"},
				"down": {"uv": [7.5, 9, 6.5, 9.5], "texture": "#17"}
			}
		},
		{
			"name": "octagon",
			"from": [7.1553, 1.19511, 10.88181],
			"to": [8.8447, 1.89489, 11.25069],
			"rotation": {"angle": 0, "axis": "y", "origin": [8, 8.47149, 6.59648]},
			"faces": {
				"north": {"uv": [7.5, 9, 8.5, 9.5], "texture": "#17"},
				"east": {"uv": [11, 1.5, 11.5, 2], "texture": "#17"},
				"south": {"uv": [8.5, 9, 9.5, 9.5], "texture": "#17"},
				"west": {"uv": [11, 2, 11.5, 2.5], "texture": "#17"},
				"up": {"uv": [10, 0.5, 9, 0], "texture": "#17"},
				"down": {"uv": [10, 1, 9, 1.5], "texture": "#17"}
			}
		},
		{
			"name": "octagon",
			"from": [2.75234, 2.72902, 10.38181],
			"to": [3.45212, 4.41842, 10.75069],
			"rotation": {"angle": 45, "axis": "z", "origin": [8, 8.47149, 6.59648]},
			"faces": {
				"north": {"uv": [9, 2.5, 9.5, 3.5], "texture": "#17"},
				"east": {"uv": [9, 3.5, 9.5, 4.5], "texture": "#17"},
				"south": {"uv": [9, 4.5, 9.5, 5.5], "texture": "#17"},
				"west": {"uv": [9, 5.5, 9.5, 6.5], "texture": "#17"},
				"up": {"uv": [11.5, 3, 11, 2.5], "texture": "#17"},
				"down": {"uv": [11.5, 3, 11, 3.5], "texture": "#17"}
			}
		},
		{
			"name": "octagon",
			"from": [7.65011, 0.7003, 10.38181],
			"to": [8.34989, 2.3897, 10.75069],
			"rotation": {"angle": 0, "axis": "y", "origin": [8, 8.47149, 6.59648]},
			"faces": {
				"north": {"uv": [9, 6.5, 9.5, 7.5], "texture": "#17"},
				"east": {"uv": [9, 7.5, 9.5, 8.5], "texture": "#17"},
				"south": {"uv": [0, 9.5, 0.5, 10.5], "texture": "#17"},
				"west": {"uv": [0.5, 9.5, 1, 10.5], "texture": "#17"},
				"up": {"uv": [11.5, 4, 11, 3.5], "texture": "#17"},
				"down": {"uv": [11.5, 4, 11, 4.5], "texture": "#17"}
			}
		},
		{
			"name": "octagon",
			"from": [2.25753, 3.22384, 10.38181],
			"to": [3.94693, 3.92361, 10.75069],
			"rotation": {"angle": 45, "axis": "z", "origin": [8, 8.47149, 6.59648]},
			"faces": {
				"north": {"uv": [9, 8.5, 10, 9], "texture": "#17"},
				"east": {"uv": [11, 4.5, 11.5, 5], "texture": "#17"},
				"south": {"uv": [2.5, 9.5, 3.5, 10], "texture": "#17"},
				"west": {"uv": [11, 5, 11.5, 5.5], "texture": "#17"},
				"up": {"uv": [4.5, 10, 3.5, 9.5], "texture": "#17"},
				"down": {"uv": [5.5, 9.5, 4.5, 10], "texture": "#17"}
			}
		},
		{
			"name": "octagon",
			"from": [7.1553, 1.19511, 10.38181],
			"to": [8.8447, 1.89489, 10.75069],
			"rotation": {"angle": 0, "axis": "y", "origin": [8, 8.47149, 6.59648]},
			"faces": {
				"north": {"uv": [5.5, 9.5, 6.5, 10], "texture": "#17"},
				"east": {"uv": [11, 5.5, 11.5, 6], "texture": "#17"},
				"south": {"uv": [6.5, 9.5, 7.5, 10], "texture": "#17"},
				"west": {"uv": [11, 6, 11.5, 6.5], "texture": "#17"},
				"up": {"uv": [8.5, 10, 7.5, 9.5], "texture": "#17"},
				"down": {"uv": [9.5, 9.5, 8.5, 10], "texture": "#17"}
			}
		},
		{
			"name": "octagon",
			"from": [3.38206, 2.58694, 8.94894],
			"to": [3.99786, 4.07361, 12.68356],
			"rotation": {"angle": 45, "axis": "z", "origin": [8, 7.64031, 7.20785]},
			"faces": {
				"north": {"uv": [11, 6.5, 11.5, 7], "texture": "#17"},
				"east": {"uv": [0, 0, 2, 0.5], "texture": "#17"},
				"south": {"uv": [11, 7, 11.5, 7.5], "texture": "#17"},
				"west": {"uv": [0, 0.5, 2, 1], "texture": "#17"},
				"up": {"uv": [0.5, 3, 0, 1], "texture": "#17"},
				"down": {"uv": [1, 1, 0.5, 3], "texture": "#17"}
			}
		},
		{
			"name": "octagon",
			"from": [7.6921, 0.80166, 8.94894],
			"to": [8.3079, 2.28834, 12.68356],
			"rotation": {"angle": 0, "axis": "y", "origin": [8, 7.64031, 7.20785]},
			"faces": {
				"north": {"uv": [11, 7.5, 11.5, 8], "texture": "#17"},
				"east": {"uv": [1, 1, 3, 1.5], "texture": "#17"},
				"south": {"uv": [11, 8, 11.5, 8.5], "texture": "#17"},
				"west": {"uv": [1, 1.5, 3, 2], "texture": "#17"},
				"up": {"uv": [1.5, 4, 1, 2], "texture": "#17"},
				"down": {"uv": [2, 2, 1.5, 4], "texture": "#17"}
			}
		},
		{
			"name": "octagon",
			"from": [2.94663, 3.02238, 8.94894],
			"to": [4.4333, 3.63818, 12.68356],
			"rotation": {"angle": 45, "axis": "z", "origin": [8, 7.64031, 7.20785]},
			"faces": {
				"north": {"uv": [11, 8.5, 11.5, 9], "texture": "#17"},
				"east": {"uv": [2, 2, 4, 2.5], "texture": "#17"},
				"south": {"uv": [11, 9, 11.5, 9.5], "texture": "#17"},
				"west": {"uv": [2, 0, 4, 0.5], "texture": "#17"},
				"up": {"uv": [2.5, 4.5, 2, 2.5], "texture": "#17"},
				"down": {"uv": [3, 2.5, 2.5, 4.5], "texture": "#17"}
			}
		},
		{
			"name": "octagon",
			"from": [7.25666, 1.2371, 8.94894],
			"to": [8.74334, 1.8529, 12.68356],
			"rotation": {"angle": 0, "axis": "y", "origin": [8, 7.64031, 7.20785]},
			"faces": {
				"north": {"uv": [11, 9.5, 11.5, 10], "texture": "#17"},
				"east": {"uv": [2, 0.5, 4, 1], "texture": "#17"},
				"south": {"uv": [11, 10, 11.5, 10.5], "texture": "#17"},
				"west": {"uv": [3, 3, 5, 3.5], "texture": "#17"},
				"up": {"uv": [0.5, 5, 0, 3], "texture": "#17"},
				"down": {"uv": [1, 3, 0.5, 5], "texture": "#17"}
			}
		},
		{
			"name": "octagon",
			"from": [1.18988, 3.08156, 14.1497],
			"to": [2.09801, 5.27397, 15.02655],
			"rotation": {"angle": 45, "axis": "z", "origin": [8, 10.53382, 7.11049]},
			"faces": {
				"north": {"uv": [1, 9.5, 1.5, 10.5], "texture": "#17"},
				"east": {"uv": [9.5, 9.5, 10, 10.5], "texture": "#17"},
				"south": {"uv": [9.5, 1.5, 10, 2.5], "texture": "#17"},
				"west": {"uv": [9.5, 2.5, 10, 3.5], "texture": "#17"},
				"up": {"uv": [11.5, 11, 11, 10.5], "texture": "#17"},
				"down": {"uv": [0.5, 11.5, 0, 12], "texture": "#17"}
			}
		},
		{
			"name": "octagon",
			"from": [7.54594, 0.4488, 14.1497],
			"to": [8.45406, 2.6412, 15.02655],
			"rotation": {"angle": 0, "axis": "y", "origin": [8, 10.53382, 7.11049]},
			"faces": {
				"north": {"uv": [9.5, 3.5, 10, 4.5], "texture": "#17"},
				"east": {"uv": [9.5, 4.5, 10, 5.5], "texture": "#17"},
				"south": {"uv": [9.5, 5.5, 10, 6.5], "texture": "#17"},
				"west": {"uv": [9.5, 6.5, 10, 7.5], "texture": "#17"},
				"up": {"uv": [1, 12, 0.5, 11.5], "texture": "#17"},
				"down": {"uv": [1.5, 11.5, 1, 12], "texture": "#17"}
			}
		},
		{
			"name": "octagon",
			"from": [0.54774, 3.7237, 14.1497],
			"to": [2.74015, 4.63183, 15.02655],
			"rotation": {"angle": 45, "axis": "z", "origin": [8, 10.53382, 7.11049]},
			"faces": {
				"north": {"uv": [9.5, 0.5, 10.5, 1], "texture": "#17"},
				"east": {"uv": [1.5, 11.5, 2, 12], "texture": "#17"},
				"south": {"uv": [9.5, 7.5, 10.5, 8], "texture": "#17"},
				"west": {"uv": [2, 11.5, 2.5, 12], "texture": "#17"},
				"up": {"uv": [10.5, 8.5, 9.5, 8], "texture": "#17"},
				"down": {"uv": [10.5, 9, 9.5, 9.5], "texture": "#17"}
			}
		},
		{
			"name": "octagon",
			"from": [6.9038, 1.09094, 14.1497],
			"to": [9.0962, 1.99906, 15.02655],
			"rotation": {"angle": 0, "axis": "y", "origin": [8, 10.53382, 7.11049]},
			"faces": {
				"north": {"uv": [1.5, 10, 2.5, 10.5], "texture": "#17"},
				"east": {"uv": [2.5, 11.5, 3, 12], "texture": "#17"},
				"south": {"uv": [2.5, 10, 3.5, 10.5], "texture": "#17"},
				"west": {"uv": [3, 11.5, 3.5, 12], "texture": "#17"},
				"up": {"uv": [4.5, 10.5, 3.5, 10], "texture": "#17"},
				"down": {"uv": [5.5, 10, 4.5, 10.5], "texture": "#17"}
			}
		}
	],
	"display": {
		"thirdperson_righthand": {
			"rotation": [90, 0, 0],
			"translation": [0, 0, 3],
			"scale": [0.5, 0.5, 0.5]
		},
		"thirdperson_lefthand": {
			"rotation": [90, 0, 0],
			"translation": [0, 0, 3],
			"scale": [0.5, 0.5, 0.5]
		},
		"firstperson_righthand": {
			"rotation": [90, 0, 30]
		},
		"firstperson_lefthand": {
			"rotation": [90, 0, 30]
		},
		"ground": {
			"translation": [0, 4, 0]
		},
		"gui": {
			"rotation": [90, 0, 30],
			"translation": [-3, 3.25, 0],
			"scale": [0.5, 0.5, 0.5]
		},
		"fixed": {
			"rotation": [90, 45, 0],
			"translation": [1.25, -1.75, 6]
		}
	}
}