{
	"console":"tardis:neuveau_console",
	"controls": {
		"tardis:throttle": {
			"size": [
				0.25,
				0.25,
				0.375
			],
			"offset": [
				0.03125,
				1.0625,
				-1.3125
			]
		},
		"tardis:handbrake": {
			"size": [
				0.25,
				0.25,
				0.3125
			],
			"offset": [
				-0.25,
				1.0625,
				-1.25
			]
		},
		"tardis:randomizer": {
			"size": [
				0.1875,
				0.3125,
				0.1875
			],
			"offset": [
				0.625,
				1.125,
				-0.875
			]
		},
		"tardis:land_type": {
			"size": [
				0.1875,
				0.1875,
				0.1875
			],
			"offset": [
				0.9375,
				1.125,
				-0.359375
			]
		},
		"tardis:facing": {
			"size": [
				0.1875,
				0.1875,
				0.1875
			],
			"offset": [
				0.578125,
				1.25,
				-0.46875
			]
		},
		"tardis:x": {
			"size": [
				0.1875,
				0.1875,
				0.1875
			],
			"offset": [
				0.875,
				1.03125,
				0.8125
			]
		},
		"tardis:y": {
			"size": [
				0.1875,
				0.1875,
				0.1875
			],
			"offset": [
				1,
				1.015625,
				0.578125
			]
		},
		"tardis:z": {
			"size": [
				0.1875,
				0.1875,
				0.1875
			],
			"offset": [
				1.15625,
				1.015625,
				0.34375
			]
		},
		"tardis:increment": {
			"size": [
				0.4375,
				0.125,
				0.3125
			],
			"offset": [
				0.5625,
				1.21875,
				0.3125
			]
		},
		"tardis:monitor": {
			"size": [
				0.4375,
				0.5625,
				0.25
			],
			"offset": [
				-0.1875,
				1.25,
				0.625
			]
		},
		"tardis:communicator": {
			"size": [
				0.0625,
				0.0625,
				0.0625
			],
			"offset": [
				-0.25,
				1.25,
				1.0625
			]
		},
		"tardis:door": {
			"size": [
				0.125,
				0.25,
				0.1875
			],
			"offset": [
				0.25,
				1.125,
				1
			]
		},
		"tardis:stabilizers": {
			"size": [
				0.125,
				0.125,
				0.1875
			],
			"offset": [
				-0.84375,
				1.15625,
				0.6875
			]
		},
		"tardis:telepathics": {
			"size": [
				0.3125,
				0.1875,
				0.3125
			],
			"offset": [
				-0.890625,
				1.234375,
				0.25
			]
		},
		"tardis:fast_return": {
			"size": [
				0.1875,
				0.125,
				0.1875
			],
			"offset": [
				-1.15625,
				1.140625,
				0.1875
			]
		},
		"tardis:refueler": {
			"size": [
				0.1875,
				0.0625,
				0.1875
			],
			"offset": [
				-1.21875,
				1.125,
				-0.421875
			]
		},
		"tardis:sonic_port": {
			"size": [
				0.125,
				0.0625,
				0.125
			],
			"offset": [
				-0.9375,
				1.1875,
				-0.609375
			]
		},
		"tardis:dimension": {
			"size": [
				0.25,
				0.375,
				0.1875
			],
			"offset": [
				-0.75,
				1.25,
				-0.5
			]
		}
	}
}