{
  "type": "tardis:text",
  "chapter": {
    "name": "flight_events",
    "weight": 120
  },
  "text": "Artron Pockets.\n\n Rarely, a timeship will encounter pockets of pure artron energy inside the Time Vortex. A quick pilot will be able to open the refueling control to soak up some of the artron as you pass through these pockets"
}