{
  "type": "room",
  "parent": "tardis:rooms/tardis_grid_alabaster",
  "canBeRemoved": true,
  "extra_unlocks": [
    {
      "location": "tardis:g8_console",
      "registry": "minecraft:item"
    }
  ],
  "generates_naturally": true,
  "roomLocation": "tardis:rooms/tardis_grid_alabaster_abandoned",
  "y_offset": -7
}