{
  "type": "room",
  "parent": "tardis:rooms/tardis_grid_nautilus",
  "canBeRemoved": true,
  "extra_unlocks": [
    {
      "location": "tardis:nemo_console",
      "registry": "minecraft:item"
    }
  ],
  "generates_naturally": true,
  "roomLocation": "tardis:rooms/tardis_grid_nautilus_abandoned",
  "y_offset": -17
}