{
  "type": "room",
  "parent": "tardis:rooms/tardis_grid_steam",
  "canBeRemoved": true,
  "extra_unlocks": [
    {
      "location": "tardis:steam_console",
      "registry": "minecraft:item"
    },
    {
      "location": "tardis:steam",
      "registry": "tardis:exterior"
    }
  ],
  "generates_naturally": true,
  "roomLocation": "tardis:rooms/tardis_grid_steam_abandoned",
  "y_offset": -15
}