{
  "type": "room",
  "parent": "tardis:rooms/tardis_grid_archive",
  "canBeRemoved": true,
  "extra_unlocks": [],
  "generates_naturally": true,
  "roomLocation": "tardis:rooms/tardis_grid_archive_abandoned",
  "y_offset": -8
}