{
  "providers": [
    {
      "type": "space",
      "advances": {
        " ": 4
      }
    },
    {
      "type": "ttf",
      "file": "tardis:sbdemo.ttf",
      "shift": [
        0,
        0
      ],
      "size": 12.0,
      "oversample": 4.0,
      "skip": "\u0027\u002E\u002C\u0028\u0029\u002D"
    }
  ]
}