{
	"credit": "Made with Blockbench",
	"texture_size": [32, 32],
	"textures": {
		"1": "tardis:block/machines/atrium_boti",
		"2": "tardis:block/machines/atrium_arch",
		"particle": "tardis:block/machines/atrium_arch"
	},
	"elements": [
		{
			"from": [-2, 30, 0],
			"to": [18, 32, 4],
			"rotation": {"angle": 0, "axis": "y", "origin": [-2, 30, 0]},
			"faces": {
				"north": {"uv": [0, 2, 10, 3], "texture": "#2"},
				"east": {"uv": [10.5, 2, 12.5, 3], "texture": "#2"},
				"south": {"uv": [0, 5, 10, 6], "texture": "#2"},
				"west": {"uv": [10.5, 5, 12.5, 6], "texture": "#2"},
				"up": {"uv": [10, 2, 0, 0], "texture": "#2"},
				"down": {"uv": [10, 3, 0, 5], "texture": "#2"}
			}
		},
		{
			"from": [16, 14, 0],
			"to": [18, 30, 4],
			"rotation": {"angle": 0, "axis": "y", "origin": [16, 14, 0]},
			"faces": {
				"north": {"uv": [3, 6, 4, 14], "texture": "#2"},
				"east": {"uv": [1, 6, 3, 14], "texture": "#2"},
				"south": {"uv": [0, 6, 1, 14], "texture": "#2"},
				"west": {"uv": [4, 6, 6, 14], "texture": "#2"},
				"up": {"uv": [7.5, 8.5, 6.5, 6.5], "texture": "#2"},
				"down": {"uv": [7.5, 9, 6.5, 11], "texture": "#2"}
			}
		},
		{
			"from": [16, -2, 0],
			"to": [18, 14, 4],
			"rotation": {"angle": 0, "axis": "y", "origin": [16, -2, 0]},
			"faces": {
				"north": {"uv": [3, 6, 4, 14], "texture": "#2"},
				"east": {"uv": [1, 6, 3, 14], "texture": "#2"},
				"south": {"uv": [0, 6, 1, 14], "texture": "#2"},
				"west": {"uv": [4, 6, 6, 14], "texture": "#2"},
				"up": {"uv": [7.5, 8.5, 6.5, 6.5], "texture": "#2"},
				"down": {"uv": [7.5, 9, 6.5, 11], "texture": "#2"}
			}
		},
		{
			"from": [-2, -2, 0],
			"to": [0, 14, 4],
			"rotation": {"angle": 0, "axis": "y", "origin": [-2, -2, 0]},
			"faces": {
				"north": {"uv": [3, 6, 4, 14], "texture": "#2"},
				"east": {"uv": [1, 6, 3, 14], "texture": "#2"},
				"south": {"uv": [0, 6, 1, 14], "texture": "#2"},
				"west": {"uv": [4, 6, 6, 14], "texture": "#2"},
				"up": {"uv": [7.5, 8.5, 6.5, 6.5], "texture": "#2"},
				"down": {"uv": [7.5, 9, 6.5, 11], "texture": "#2"}
			}
		},
		{
			"from": [-2, 14, 0],
			"to": [0, 30, 4],
			"rotation": {"angle": 0, "axis": "y", "origin": [-2, 14, 0]},
			"faces": {
				"north": {"uv": [3, 6, 4, 14], "texture": "#2"},
				"east": {"uv": [1, 6, 3, 14], "texture": "#2"},
				"south": {"uv": [0, 6, 1, 14], "texture": "#2"},
				"west": {"uv": [4, 6, 6, 14], "texture": "#2"},
				"up": {"uv": [7.5, 8.5, 6.5, 6.5], "texture": "#2"},
				"down": {"uv": [7.5, 9, 6.5, 11], "texture": "#2"}
			}
		},
		{
			"from": [0, -2, 1.5],
			"to": [16, 14, 2.5],
			"rotation": {"angle": 0, "axis": "y", "origin": [0, -2, 1.5]},
			"faces": {
				"north": {"uv": [0.5, 0.5, 8.5, 8.5], "texture": "#1"},
				"east": {"uv": [0, 0.5, 0.5, 8.5], "texture": "#1"},
				"south": {"uv": [0.5, 0.5, 8.5, 8.5], "texture": "#1"},
				"west": {"uv": [8.5, 0.5, 9, 8.5], "texture": "#1"},
				"up": {"uv": [8.5, 0, 0.5, 0.5], "texture": "#1"},
				"down": {"uv": [8.5, 8.5, 0.5, 9], "texture": "#1"}
			}
		},
		{
			"from": [0, 14, 1.5],
			"to": [16, 30, 2.5],
			"rotation": {"angle": 0, "axis": "y", "origin": [0, 14, 1.5]},
			"faces": {
				"north": {"uv": [0.5, 0.5, 8.5, 8.5], "texture": "#1"},
				"east": {"uv": [0, 0.5, 0.5, 8.5], "texture": "#1"},
				"south": {"uv": [0.5, 0.5, 8.5, 8.5], "texture": "#1"},
				"west": {"uv": [8.5, 0.5, 9, 8.5], "texture": "#1"},
				"up": {"uv": [8.5, 0, 0.5, 0.5], "texture": "#1"},
				"down": {"uv": [8.5, 8.5, 0.5, 9], "texture": "#1"}
			}
		}
	],
	"display": {
		"thirdperson_righthand": {
			"rotation": [0, 100, 0],
			"translation": [2.5, 1.25, -3],
			"scale": [0.5, 0.5, 0.5]
		},
		"thirdperson_lefthand": {
			"rotation": [0, 100, 0],
			"translation": [1.25, 1.25, -3],
			"scale": [0.5, 0.5, 0.5]
		},
		"firstperson_righthand": {
			"rotation": [-5, 116, 0],
			"scale": [0.3, 0.5, 0.55]
		},
		"firstperson_lefthand": {
			"rotation": [-5, 116, 0],
			"scale": [0.3, 0.5, 0.55]
		},
		"ground": {
			"translation": [0, 2, 0],
			"scale": [0.6, 0.6, 0.6]
		},
		"gui": {
			"rotation": [2, -43, -8],
			"translation": [-2.25, -3, 0],
			"scale": [0.4, 0.4, 0.4]
		},
		"head": {
			"translation": [0, 13, 0]
		},
		"fixed": {
			"translation": [0, -3.75, 3.5],
			"scale": [0.5, 0.5, 0.5]
		}
	},
	"groups": [
		{
			"name": "frame",
			"origin": [-2, -16, 0],
			"color": 0,
			"children": [0, 1, 2, 3, 4]
		},
		{
			"name": "boti",
			"origin": [-2, -16, 0],
			"color": 0,
			"children": [5, 6]
		}
	]
}