{
  "blend": {
    "func": "add",
    "srcrgb": "srcalpha",
    "dstrgb": "1-srcalpha"
  },
  "vertex": "tardis:snow",
  "fragment": "tardis:snow",
  "attributes": [
    "Position",
    "Color",
    "UV0",
    "UV2",
    "Normal"
  ],
  "samplers": [
    {
      "name": "Sampler0"
    },
    {
      "name": "Sampler1"
    },
    {
      "name": "Sampler2"
    }
  ],
  "uniforms": [
    { "name" : "ProjMat", "type": "matrix4x4", "count": 16, "values": [ 1.0, 0.0, 0.0, 0.0, 0.0, 1.0, 0.0, 0.0, 0.0, 0.0, 1.0, 0.0, 0.0, 0.0, 0.0, 1.0 ] },
    { "name" : "IViewRotMat", "type": "matrix3x3", "count": 9, "values": [ 1.0, 0.0, 0.0, 0.0, 1.0, 0.0, 0.0, 0.0, 1.0 ] },
    { "name" : "SnowColor", "type" : "float", "count" : 4, "values" : [1.0, 1.0, 1.0, 1.0] },
    { "name" : "ColorModulator", "type" : "float", "count": 4, "values" : [1.0, 1.0, 1.0, 1.0] }
  ]
}
