{
  "disguise": [
    {
      "position": [
        0,
        0,
        0
      ],
      "state": {
        "Properties": {
          "axis": "y"
        },
        "Name": "minecraft:oak_log"
      }
    },
    {
      "position": [
        2,
        4,
        -2
      ],
      "state": {
        "Properties": {
          "waterlogged": "false",
          "persistent": "false",
          "distance": "4"
        },
        "Name": "minecraft:oak_leaves"
      }
    },
    {
      "position": [
        1,
        4,
        -2
      ],
      "state": {
        "Properties": {
          "waterlogged": "false",
          "persistent": "false",
          "distance": "3"
        },
        "Name": "minecraft:oak_leaves"
      }
    },
    {
      "position": [
        0,
        4,
        -2
      ],
      "state": {
        "Properties": {
          "waterlogged": "false",
          "persistent": "false",
          "distance": "2"
        },
        "Name": "minecraft:oak_leaves"
      }
    },
    {
      "position": [
        -1,
        4,
        -2
      ],
      "state": {
        "Properties": {
          "waterlogged": "false",
          "persistent": "false",
          "distance": "3"
        },
        "Name": "minecraft:oak_leaves"
      }
    },
    {
      "position": [
        0,
        6,
        -1
      ],
      "state": {
        "Properties": {
          "waterlogged": "false",
          "persistent": "false",
          "distance": "2"
        },
        "Name": "minecraft:oak_leaves"
      }
    },
    {
      "position": [
        -1,
        5,
        0
      ],
      "state": {
        "Properties": {
          "waterlogged": "false",
          "persistent": "false",
          "distance": "1"
        },
        "Name": "minecraft:oak_leaves"
      }
    },
    {
      "position": [
        0,
        5,
        0
      ],
      "state": {
        "Properties": {
          "axis": "y"
        },
        "Name": "minecraft:oak_log"
      }
    },
    {
      "position": [
        1,
        5,
        0
      ],
      "state": {
        "Properties": {
          "waterlogged": "false",
          "persistent": "false",
          "distance": "1"
        },
        "Name": "minecraft:oak_leaves"
      }
    },
    {
      "position": [
        -2,
        3,
        1
      ],
      "state": {
        "Properties": {
          "waterlogged": "false",
          "persistent": "false",
          "distance": "3"
        },
        "Name": "minecraft:oak_leaves"
      }
    },
    {
      "position": [
        -1,
        3,
        1
      ],
      "state": {
        "Properties": {
          "waterlogged": "false",
          "persistent": "false",
          "distance": "2"
        },
        "Name": "minecraft:oak_leaves"
      }
    },
    {
      "position": [
        0,
        3,
        1
      ],
      "state": {
        "Properties": {
          "waterlogged": "false",
          "persistent": "false",
          "distance": "1"
        },
        "Name": "minecraft:oak_leaves"
      }
    },
    {
      "position": [
        0,
        1,
        0
      ],
      "state": {
        "Properties": {
          "axis": "y"
        },
        "Name": "minecraft:oak_log"
      }
    },
    {
      "position": [
        1,
        3,
        1
      ],
      "state": {
        "Properties": {
          "waterlogged": "false",
          "persistent": "false",
          "distance": "2"
        },
        "Name": "minecraft:oak_leaves"
      }
    },
    {
      "position": [
        2,
        3,
        1
      ],
      "state": {
        "Properties": {
          "waterlogged": "false",
          "persistent": "false",
          "distance": "3"
        },
        "Name": "minecraft:oak_leaves"
      }
    },
    {
      "position": [
        1,
        3,
        -2
      ],
      "state": {
        "Properties": {
          "waterlogged": "false",
          "persistent": "false",
          "distance": "3"
        },
        "Name": "minecraft:oak_leaves"
      }
    },
    {
      "position": [
        0,
        3,
        -2
      ],
      "state": {
        "Properties": {
          "waterlogged": "false",
          "persistent": "false",
          "distance": "2"
        },
        "Name": "minecraft:oak_leaves"
      }
    },
    {
      "position": [
        -1,
        3,
        -2
      ],
      "state": {
        "Properties": {
          "waterlogged": "false",
          "persistent": "false",
          "distance": "3"
        },
        "Name": "minecraft:oak_leaves"
      }
    },
    {
      "position": [
        0,
        5,
        -1
      ],
      "state": {
        "Properties": {
          "waterlogged": "false",
          "persistent": "false",
          "distance": "1"
        },
        "Name": "minecraft:oak_leaves"
      }
    },
    {
      "position": [
        -1,
        6,
        0
      ],
      "state": {
        "Properties": {
          "waterlogged": "false",
          "persistent": "false",
          "distance": "2"
        },
        "Name": "minecraft:oak_leaves"
      }
    },
    {
      "position": [
        0,
        6,
        0
      ],
      "state": {
        "Properties": {
          "waterlogged": "false",
          "persistent": "false",
          "distance": "1"
        },
        "Name": "minecraft:oak_leaves"
      }
    },
    {
      "position": [
        1,
        6,
        0
      ],
      "state": {
        "Properties": {
          "waterlogged": "false",
          "persistent": "false",
          "distance": "2"
        },
        "Name": "minecraft:oak_leaves"
      }
    },
    {
      "position": [
        -2,
        4,
        1
      ],
      "state": {
        "Properties": {
          "waterlogged": "false",
          "persistent": "false",
          "distance": "3"
        },
        "Name": "minecraft:oak_leaves"
      }
    },
    {
      "position": [
        -1,
        4,
        1
      ],
      "state": {
        "Properties": {
          "waterlogged": "false",
          "persistent": "false",
          "distance": "2"
        },
        "Name": "minecraft:oak_leaves"
      }
    },
    {
      "position": [
        0,
        4,
        1
      ],
      "state": {
        "Properties": {
          "waterlogged": "false",
          "persistent": "false",
          "distance": "1"
        },
        "Name": "minecraft:oak_leaves"
      }
    },
    {
      "position": [
        0,
        2,
        0
      ],
      "state": {
        "Properties": {
          "axis": "y"
        },
        "Name": "minecraft:oak_log"
      }
    },
    {
      "position": [
        1,
        4,
        1
      ],
      "state": {
        "Properties": {
          "waterlogged": "false",
          "persistent": "false",
          "distance": "2"
        },
        "Name": "minecraft:oak_leaves"
      }
    },
    {
      "position": [
        2,
        4,
        1
      ],
      "state": {
        "Properties": {
          "waterlogged": "false",
          "persistent": "false",
          "distance": "3"
        },
        "Name": "minecraft:oak_leaves"
      }
    },
    {
      "position": [
        2,
        4,
        -1
      ],
      "state": {
        "Properties": {
          "waterlogged": "false",
          "persistent": "false",
          "distance": "3"
        },
        "Name": "minecraft:oak_leaves"
      }
    },
    {
      "position": [
        1,
        4,
        -1
      ],
      "state": {
        "Properties": {
          "waterlogged": "false",
          "persistent": "false",
          "distance": "2"
        },
        "Name": "minecraft:oak_leaves"
      }
    },
    {
      "position": [
        0,
        4,
        -1
      ],
      "state": {
        "Properties": {
          "waterlogged": "false",
          "persistent": "false",
          "distance": "1"
        },
        "Name": "minecraft:oak_leaves"
      }
    },
    {
      "position": [
        -1,
        4,
        -1
      ],
      "state": {
        "Properties": {
          "waterlogged": "false",
          "persistent": "false",
          "distance": "2"
        },
        "Name": "minecraft:oak_leaves"
      }
    },
    {
      "position": [
        -2,
        4,
        -1
      ],
      "state": {
        "Properties": {
          "waterlogged": "false",
          "persistent": "false",
          "distance": "3"
        },
        "Name": "minecraft:oak_leaves"
      }
    },
    {
      "position": [
        -2,
        3,
        0
      ],
      "state": {
        "Properties": {
          "waterlogged": "false",
          "persistent": "false",
          "distance": "2"
        },
        "Name": "minecraft:oak_leaves"
      }
    },
    {
      "position": [
        -1,
        3,
        0
      ],
      "state": {
        "Properties": {
          "waterlogged": "false",
          "persistent": "false",
          "distance": "1"
        },
        "Name": "minecraft:oak_leaves"
      }
    },
    {
      "position": [
        0,
        5,
        1
      ],
      "state": {
        "Properties": {
          "waterlogged": "false",
          "persistent": "false",
          "distance": "1"
        },
        "Name": "minecraft:oak_leaves"
      }
    },
    {
      "position": [
        0,
        3,
        0
      ],
      "state": {
        "Properties": {
          "axis": "y"
        },
        "Name": "minecraft:oak_log"
      }
    },
    {
      "position": [
        1,
        3,
        0
      ],
      "state": {
        "Properties": {
          "waterlogged": "false",
          "persistent": "false",
          "distance": "1"
        },
        "Name": "minecraft:oak_leaves"
      }
    },
    {
      "position": [
        -1,
        3,
        2
      ],
      "state": {
        "Properties": {
          "waterlogged": "false",
          "persistent": "false",
          "distance": "3"
        },
        "Name": "minecraft:oak_leaves"
      }
    },
    {
      "position": [
        2,
        3,
        0
      ],
      "state": {
        "Properties": {
          "waterlogged": "false",
          "persistent": "false",
          "distance": "2"
        },
        "Name": "minecraft:oak_leaves"
      }
    },
    {
      "position": [
        0,
        3,
        2
      ],
      "state": {
        "Properties": {
          "waterlogged": "false",
          "persistent": "false",
          "distance": "2"
        },
        "Name": "minecraft:oak_leaves"
      }
    },
    {
      "position": [
        1,
        3,
        2
      ],
      "state": {
        "Properties": {
          "waterlogged": "false",
          "persistent": "false",
          "distance": "3"
        },
        "Name": "minecraft:oak_leaves"
      }
    },
    {
      "position": [
        2,
        3,
        -1
      ],
      "state": {
        "Properties": {
          "waterlogged": "false",
          "persistent": "false",
          "distance": "3"
        },
        "Name": "minecraft:oak_leaves"
      }
    },
    {
      "position": [
        1,
        3,
        -1
      ],
      "state": {
        "Properties": {
          "waterlogged": "false",
          "persistent": "false",
          "distance": "2"
        },
        "Name": "minecraft:oak_leaves"
      }
    },
    {
      "position": [
        0,
        3,
        -1
      ],
      "state": {
        "Properties": {
          "waterlogged": "false",
          "persistent": "false",
          "distance": "1"
        },
        "Name": "minecraft:oak_leaves"
      }
    },
    {
      "position": [
        -1,
        3,
        -1
      ],
      "state": {
        "Properties": {
          "waterlogged": "false",
          "persistent": "false",
          "distance": "2"
        },
        "Name": "minecraft:oak_leaves"
      }
    },
    {
      "position": [
        -2,
        3,
        -1
      ],
      "state": {
        "Properties": {
          "waterlogged": "false",
          "persistent": "false",
          "distance": "3"
        },
        "Name": "minecraft:oak_leaves"
      }
    },
    {
      "position": [
        -2,
        4,
        0
      ],
      "state": {
        "Properties": {
          "waterlogged": "false",
          "persistent": "false",
          "distance": "2"
        },
        "Name": "minecraft:oak_leaves"
      }
    },
    {
      "position": [
        -1,
        4,
        0
      ],
      "state": {
        "Properties": {
          "waterlogged": "false",
          "persistent": "false",
          "distance": "1"
        },
        "Name": "minecraft:oak_leaves"
      }
    },
    {
      "position": [
        0,
        6,
        1
      ],
      "state": {
        "Properties": {
          "waterlogged": "false",
          "persistent": "false",
          "distance": "2"
        },
        "Name": "minecraft:oak_leaves"
      }
    },
    {
      "position": [
        0,
        4,
        0
      ],
      "state": {
        "Properties": {
          "axis": "y"
        },
        "Name": "minecraft:oak_log"
      }
    },
    {
      "position": [
        1,
        4,
        0
      ],
      "state": {
        "Properties": {
          "waterlogged": "false",
          "persistent": "false",
          "distance": "1"
        },
        "Name": "minecraft:oak_leaves"
      }
    },
    {
      "position": [
        -1,
        4,
        2
      ],
      "state": {
        "Properties": {
          "waterlogged": "false",
          "persistent": "false",
          "distance": "3"
        },
        "Name": "minecraft:oak_leaves"
      }
    },
    {
      "position": [
        2,
        4,
        0
      ],
      "state": {
        "Properties": {
          "waterlogged": "false",
          "persistent": "false",
          "distance": "2"
        },
        "Name": "minecraft:oak_leaves"
      }
    },
    {
      "position": [
        0,
        4,
        2
      ],
      "state": {
        "Properties": {
          "waterlogged": "false",
          "persistent": "false",
          "distance": "2"
        },
        "Name": "minecraft:oak_leaves"
      }
    },
    {
      "position": [
        1,
        4,
        2
      ],
      "state": {
        "Properties": {
          "waterlogged": "false",
          "persistent": "false",
          "distance": "3"
        },
        "Name": "minecraft:oak_leaves"
      }
    }
  ],
  "valid_biomes": [
    "minecraft:is_forest"
  ]
}