{
  "parent": "minecraft:block/cube_bottom_top",
  "textures": {
    "bottom": "tardis:block/machines/tech_floor_dark_plate",
    "side": "tardis:block/machines/airlock_bottom",
    "top": "tardis:block/machines/landing_pad"
  }
}