{
	"credit": "Made with Blockbench",
	"textures": {
		"text": "createdeco:test"
	},
	"elements": [
		{
			"name": "rail",
			"from": [0, 12, 0],
			"to": [2, 14, 16],
			"rotation": {"angle": 0, "axis": "y", "origin": [1, 30, 8]},
			"faces": {
				"north": {"uv": [1, 2, 3, 4], "texture": "#text"},
				"east": {"uv": [0, 2, 16, 4], "texture": "#text"},
				"south": {"uv": [6, 2, 8, 4], "texture": "#text"},
				"west": {"uv": [0, 2, 16, 4], "texture": "#text"},
				"up": {"uv": [0, 0, 16, 2], "rotation": 90, "texture": "#text"},
				"down": {"uv": [16, 3, 0, 4], "rotation": 90, "texture": "#text"}
			}
		},
		{
			"name": "rail",
			"from": [0.002, 0.002, 11.002],
			"to": [1.998, 11.998, 12.998],
			"rotation": {"angle": 0, "axis": "y", "origin": [1, 23, 12]},
			"faces": {
				"north": {"uv": [5, 4, 3, 16], "texture": "#text"},
				"east": {"uv": [5, 4, 3, 16], "texture": "#text"},
				"south": {"uv": [5, 4, 3, 16], "texture": "#text"},
				"west": {"uv": [5, 4, 3, 16], "texture": "#text"},
				"up": {"uv": [3, 3, 5, 5], "texture": "#text"},
				"down": {"uv": [3, 3, 5, 5], "rotation": 180, "texture": "#text"}
			}
		},
		{
			"name": "rail",
			"from": [0.002, 0.002, 3.002],
			"to": [1.998, 11.998, 4.998],
			"rotation": {"angle": 0, "axis": "y", "origin": [1, 23, 4]},
			"faces": {
				"north": {"uv": [14, 4, 12, 16], "texture": "#text"},
				"east": {"uv": [14, 4, 12, 16], "texture": "#text"},
				"south": {"uv": [14, 4, 12, 16], "texture": "#text"},
				"west": {"uv": [14, 4, 12, 16], "texture": "#text"},
				"up": {"uv": [3, 3, 5, 5], "texture": "#text"},
				"down": {"uv": [3, 3, 5, 5], "rotation": 180, "texture": "#text"}
			}
		}
	],
	"display": {
		"thirdperson_righthand": {
			"rotation": [75, 45, 0],
			"translation": [0, 2.5, 0],
			"scale": [0.375, 0.375, 0.375]
		},
		"firstperson_righthand": {
			"rotation": [0, 45, 0],
			"translation": [0, 2, 0],
			"scale": [0.4, 0.4, 0.4]
		},
		"firstperson_lefthand": {
			"rotation": [0, 225, 0],
			"translation": [0, 2, 0],
			"scale": [0.4, 0.4, 0.4]
		},
		"ground": {
			"translation": [0, 3, 0],
			"scale": [0.25, 0.25, 0.25]
		},
		"gui": {
			"rotation": [30, 225, 0],
			"translation": [-5, -2, 0]
		},
		"fixed": {
			"scale": [0.5, 0.5, 0.5]
		}
	},
	"groups": [
		{
			"name": "rail_side_right",
			"origin": [1, 23, 4],
			"color": 0,
			"children": [0, 1, 2]
		}
	]
}