{
	"credit": "Made with Blockbench",
	"textures": {
		"0": "minecraft:block/anvil",
		"1": "minecraft:block/black_concrete",
		"particle": "minecraft:block/anvil"
	},
	"elements": [
		{
			"from": [0, 0, 3],
			"to": [16, 1, 4],
			"rotation": {"angle": 0, "axis": "y", "origin": [8, 8, 11]},
			"faces": {
				"north": {"uv": [0, 15, 16, 16], "texture": "#0"},
				"east": {"uv": [12, 15, 13, 16], "texture": "#0"},
				"south": {"uv": [0, 15, 16, 16], "texture": "#0"},
				"west": {"uv": [3, 15, 4, 16], "texture": "#0"},
				"up": {"uv": [0, 3, 16, 4], "texture": "#0"},
				"down": {"uv": [0, 12, 16, 13], "texture": "#0"}
			}
		},
		{
			"from": [0, 0, 12],
			"to": [16, 1, 13],
			"rotation": {"angle": 0, "axis": "y", "origin": [8, 8, 20]},
			"faces": {
				"north": {"uv": [0, 15, 16, 16], "texture": "#0"},
				"east": {"uv": [3, 15, 4, 16], "texture": "#0"},
				"south": {"uv": [0, 15, 16, 16], "texture": "#0"},
				"west": {"uv": [12, 15, 13, 16], "texture": "#0"},
				"up": {"uv": [0, 12, 16, 13], "texture": "#0"},
				"down": {"uv": [0, 3, 16, 4], "texture": "#0"}
			}
		},
		{
			"from": [0, 0, 4],
			"to": [2, 1, 12],
			"rotation": {"angle": 0, "axis": "y", "origin": [8, 8, 19]},
			"faces": {
				"north": {"uv": [14, 15, 16, 16], "texture": "#0"},
				"east": {"uv": [4, 15, 12, 16], "texture": "#0"},
				"south": {"uv": [0, 15, 2, 16], "texture": "#0"},
				"west": {"uv": [4, 15, 12, 16], "texture": "#0"},
				"up": {"uv": [0, 4, 2, 12], "texture": "#0"},
				"down": {"uv": [0, 4, 2, 12], "texture": "#0"}
			}
		},
		{
			"from": [2, 0.25, 4],
			"to": [15, 0.25, 12],
			"rotation": {"angle": 0, "axis": "y", "origin": [10, 8.25, 19]},
			"faces": {
				"north": {"uv": [0, 0, 1, 1], "texture": "#1"},
				"east": {"uv": [0, 0, 1, 1], "texture": "#1"},
				"south": {"uv": [0, 0, 1, 1], "texture": "#1"},
				"west": {"uv": [0, 0, 1, 1], "texture": "#1"},
				"up": {"uv": [0, 0, 1, 1], "texture": "#1"},
				"down": {"uv": [0, 0, 1, 1], "texture": "#1"}
			}
		},
		{
			"from": [14, 0, 4],
			"to": [16, 1, 12],
			"rotation": {"angle": 0, "axis": "y", "origin": [22, 8, 19]},
			"faces": {
				"north": {"uv": [0, 15, 2, 16], "texture": "#0"},
				"east": {"uv": [4, 15, 12, 16], "texture": "#0"},
				"south": {"uv": [14, 15, 16, 16], "texture": "#0"},
				"west": {"uv": [4, 15, 12, 16], "texture": "#0"},
				"up": {"uv": [14, 4, 16, 12], "texture": "#0"},
				"down": {"uv": [14, 4, 16, 12], "texture": "#0"}
			}
		},
		{
			"from": [3.4, 0, 4],
			"to": [5.4, 1, 12],
			"rotation": {"angle": 0, "axis": "y", "origin": [11.4, 8, 19]},
			"faces": {
				"north": {"uv": [10.6, 15, 12.6, 16], "texture": "#0"},
				"east": {"uv": [4, 15, 12, 16], "texture": "#0"},
				"south": {"uv": [3.4, 15, 5.4, 16], "texture": "#0"},
				"west": {"uv": [4, 15, 12, 16], "texture": "#0"},
				"up": {"uv": [3.4, 4, 5.4, 12], "texture": "#0"},
				"down": {"uv": [3.4, 4, 5.4, 12], "texture": "#0"}
			}
		},
		{
			"from": [6.9, 0, 4],
			"to": [8.9, 1, 12],
			"rotation": {"angle": 0, "axis": "y", "origin": [14.9, 8, 19]},
			"faces": {
				"north": {"uv": [7.1, 15, 9.1, 16], "texture": "#0"},
				"east": {"uv": [4, 15, 12, 16], "texture": "#0"},
				"south": {"uv": [6.9, 15, 8.9, 16], "texture": "#0"},
				"west": {"uv": [4, 15, 12, 16], "texture": "#0"},
				"up": {"uv": [6.9, 4, 8.9, 12], "texture": "#0"},
				"down": {"uv": [6.9, 4, 8.9, 12], "texture": "#0"}
			}
		},
		{
			"from": [10.65, 0, 4],
			"to": [12.65, 1, 12],
			"rotation": {"angle": 0, "axis": "y", "origin": [18.65, 8, 19]},
			"faces": {
				"north": {"uv": [3.35, 15, 5.35, 16], "texture": "#0"},
				"east": {"uv": [4, 15, 12, 16], "texture": "#0"},
				"south": {"uv": [10.65, 15, 12.65, 16], "texture": "#0"},
				"west": {"uv": [4, 15, 12, 16], "texture": "#0"},
				"up": {"uv": [10.65, 4, 12.65, 12], "texture": "#0"},
				"down": {"uv": [10.65, 4, 12.65, 12], "texture": "#0"}
			}
		}
	],
	"display": {
		"thirdperson_righthand": {
			"rotation": [75, -45, 0],
			"translation": [0, 2.5, 2.75],
			"scale": [0.375, 0.375, 0.375]
		},
		"thirdperson_lefthand": {
			"rotation": [75, -45, 0],
			"translation": [0, 2.5, 2.75],
			"scale": [0.375, 0.375, 0.375]
		},
		"firstperson_righthand": {
			"rotation": [0, -45, 0],
			"translation": [0, 5, 0],
			"scale": [0.4, 0.4, 0.4]
		},
		"firstperson_lefthand": {
			"rotation": [0, 135, 0],
			"translation": [0, 5, 0],
			"scale": [0.4, 0.4, 0.4]
		},
		"ground": {
			"translation": [0, 3, 0],
			"scale": [0.25, 0.25, 0.25]
		},
		"gui": {
			"rotation": [30, 225, 0],
			"scale": [0.625, 0.625, 0.625]
		},
		"fixed": {
			"rotation": [-90, 0, 0],
			"translation": [0, 0, -4],
			"scale": [0.5, 0.5, 0.5]
		}
	}
}