{
  "type": "tardis:quantiscope/crafting",
  "main_component": {
    "item": "tardis:artron_capacitors/mid"
  },
  "other_ingredients": [
    {
      "tag": "forge:gems/amethyst"
    },
    {
      "item": "tardis:xion_block"
    },
    {
      "item": "tardis:data_matrix"
    }
  ],
  "result": {
    "item": "tardis:artron_capacitors/high"
  }
}