{
  "parent": "minecraft:block/slab_top",
  "render_type": "minecraft:solid",
  "textures": {
    "bottom": "tardis:block/decoration/alabaster/alabaster",
    "side": "tardis:block/decoration/alabaster/alabaster",
    "top": "tardis:block/decoration/alabaster/alabaster"
  }
}