{
  "parent": "minecraft:block/outer_stairs",
  "textures": {
    "bottom": "tardis:block/decoration/alabaster/alabaster",
    "side": "tardis:block/decoration/alabaster/alabaster",
    "top": "tardis:block/decoration/alabaster/alabaster"
  }
}