{
  "type": "tardis:text",
  "chapter": {
    "name": "broken_exteriors",
    "weight": 9999999
  },
  "text": "   There is a possibility that a particularly rebellious TARDIS' security systems may degrade with time if they are not maintained. Such TARDISes may allow people entry if they are provided with enough items relevant to the TARDIS' interests. If such a time ship is found, using the Chronofault Locator on it will allow you to see the required items."
}