{
	"credit": "Made with Blockbench",
	"texture_size": [64, 64],
	"textures": {
		"0": "tardis:item/tools/personal_shield",
		"particle": "tardis:item/tools/personal_shield"
	},
	"elements": [
		{
			"from": [7, 7, 6],
			"to": [9, 13, 12],
			"rotation": {"angle": 0, "axis": "y", "origin": [7, 7, 6]},
			"faces": {
				"north": {"uv": [8, 1.5, 8.5, 3], "texture": "#0"},
				"east": {"uv": [8.5, 1.5, 10, 3], "texture": "#0"},
				"south": {"uv": [10, 1.5, 10.5, 3], "texture": "#0"},
				"west": {"uv": [6.5, 1.5, 8, 3], "texture": "#0"},
				"up": {"uv": [8.5, 1.5, 8, 0], "texture": "#0"},
				"down": {"uv": [9, 0, 8.5, 1.5], "texture": "#0"}
			}
		},
		{
			"from": [2, 0, 5],
			"to": [14, 22, 6],
			"rotation": {"angle": 0, "axis": "y", "origin": [2, 0, 5]},
			"faces": {
				"north": {"uv": [0.25, 0.25, 3.25, 5.75], "texture": "#0"},
				"east": {"uv": [0, 0.25, 0.25, 5.75], "texture": "#0"},
				"south": {"uv": [3.5, 0.25, 6.5, 5.75], "texture": "#0"},
				"west": {"uv": [3.25, 0.25, 3.5, 5.75], "texture": "#0"},
				"up": {"uv": [3.25, 0.25, 0.25, 0], "texture": "#0"},
				"down": {"uv": [6.25, 0, 3.25, 0.25], "texture": "#0"}
			}
		},
		{
			"from": [3.575, 16.9, 4.25],
			"to": [4.575, 17.9, 5.25],
			"rotation": {"angle": 45, "axis": "z", "origin": [4, 16.4, 3.75]},
			"faces": {
				"north": {"uv": [5, 6, 6, 7], "texture": "#0"},
				"east": {"uv": [5, 6, 6, 7], "texture": "#0"},
				"south": {"uv": [5, 6, 6, 7], "texture": "#0"},
				"west": {"uv": [5, 6, 6, 7], "texture": "#0"},
				"up": {"uv": [5, 6, 6, 7], "texture": "#0"},
				"down": {"uv": [5, 6, 6, 7], "texture": "#0"}
			}
		},
		{
			"from": [13.125, 17.05, 4.25],
			"to": [14.125, 18.05, 5.25],
			"rotation": {"angle": 45, "axis": "z", "origin": [13.625, 16.4, 3.75]},
			"faces": {
				"north": {"uv": [5, 6, 6, 7], "texture": "#0"},
				"east": {"uv": [5, 6, 6, 7], "texture": "#0"},
				"south": {"uv": [5, 6, 6, 7], "texture": "#0"},
				"west": {"uv": [5, 6, 6, 7], "texture": "#0"},
				"up": {"uv": [5, 6, 6, 7], "texture": "#0"},
				"down": {"uv": [5, 6, 6, 7], "texture": "#0"}
			}
		},
		{
			"from": [8.25, 12.25, 4],
			"to": [9.25, 13.25, 5],
			"rotation": {"angle": 45, "axis": "z", "origin": [8.75, 11.75, 3.5]},
			"faces": {
				"north": {"uv": [5, 6, 6, 7], "texture": "#0"},
				"east": {"uv": [5, 6, 6, 7], "texture": "#0"},
				"south": {"uv": [5, 6, 6, 7], "texture": "#0"},
				"west": {"uv": [5, 6, 6, 7], "texture": "#0"},
				"up": {"uv": [5, 6, 6, 7], "texture": "#0"},
				"down": {"uv": [5, 6, 6, 7], "texture": "#0"}
			}
		},
		{
			"from": [8.2, 5.4, 4.25],
			"to": [9.2, 6.4, 5.25],
			"rotation": {"angle": 45, "axis": "z", "origin": [8.7, 4.9, 3.75]},
			"faces": {
				"north": {"uv": [5, 6, 6, 7], "texture": "#0"},
				"east": {"uv": [5, 6, 6, 7], "texture": "#0"},
				"south": {"uv": [5, 6, 6, 7], "texture": "#0"},
				"west": {"uv": [5, 6, 6, 7], "texture": "#0"},
				"up": {"uv": [5, 6, 6, 7], "texture": "#0"},
				"down": {"uv": [5, 6, 6, 7], "texture": "#0"}
			}
		},
		{
			"from": [6.75, 13.5, 4],
			"to": [9.25, 15, 5.7],
			"rotation": {"angle": 0, "axis": "y", "origin": [7.25, 13, 4]},
			"faces": {
				"north": {"uv": [0, 6, 1, 7], "texture": "#0"},
				"east": {"uv": [0, 6, 1, 7], "texture": "#0"},
				"south": {"uv": [0, 6, 1, 7], "texture": "#0"},
				"west": {"uv": [0, 6, 1, 7], "texture": "#0"},
				"up": {"uv": [0, 6, 1, 7], "texture": "#0"},
				"down": {"uv": [0, 6, 1, 7], "texture": "#0"}
			}
		},
		{
			"from": [7.5, 14.4, 3.75],
			"to": [8.5, 15.4, 5.45],
			"rotation": {"angle": 0, "axis": "y", "origin": [7.75, 13.25, 2.75]},
			"faces": {
				"north": {"uv": [7, 6, 8, 7], "texture": "#0"},
				"east": {"uv": [7, 6, 8, 7], "texture": "#0"},
				"south": {"uv": [7, 6, 8, 7], "texture": "#0"},
				"west": {"uv": [7, 6, 8, 7], "texture": "#0"},
				"up": {"uv": [7, 6, 8, 7], "texture": "#0"},
				"down": {"uv": [7, 6, 8, 7], "texture": "#0"}
			}
		},
		{
			"from": [5.125, 12.35, 3.75],
			"to": [6.125, 13.35, 5.45],
			"rotation": {"angle": 0, "axis": "y", "origin": [9.175, 11.35, 2.75]},
			"faces": {
				"north": {"uv": [7, 6, 8, 7], "texture": "#0"},
				"east": {"uv": [7, 6, 8, 7], "texture": "#0"},
				"south": {"uv": [7, 6, 8, 7], "texture": "#0"},
				"west": {"uv": [7, 6, 8, 7], "texture": "#0"},
				"up": {"uv": [7, 6, 8, 7], "texture": "#0"},
				"down": {"uv": [7, 6, 8, 7], "texture": "#0"}
			}
		},
		{
			"from": [3.975, 12.35, 5.65],
			"to": [4.975, 13.35, 6.65],
			"rotation": {"angle": 0, "axis": "y", "origin": [9.175, 11.35, 2.75]},
			"faces": {
				"north": {"uv": [7, 6, 8, 7], "texture": "#0"},
				"east": {"uv": [7, 6, 8, 7], "texture": "#0"},
				"south": {"uv": [7, 6, 8, 7], "texture": "#0"},
				"west": {"uv": [7, 6, 8, 7], "texture": "#0"},
				"up": {"uv": [7, 6, 8, 7], "texture": "#0"},
				"down": {"uv": [7, 6, 8, 7], "texture": "#0"}
			}
		},
		{
			"from": [10.975, 12.35, 5.65],
			"to": [11.975, 13.35, 6.65],
			"rotation": {"angle": 0, "axis": "y", "origin": [9.175, 11.35, 2.75]},
			"faces": {
				"north": {"uv": [7, 6, 8, 7], "texture": "#0"},
				"east": {"uv": [7, 6, 8, 7], "texture": "#0"},
				"south": {"uv": [7, 6, 8, 7], "texture": "#0"},
				"west": {"uv": [7, 6, 8, 7], "texture": "#0"},
				"up": {"uv": [7, 6, 8, 7], "texture": "#0"},
				"down": {"uv": [7, 6, 8, 7], "texture": "#0"}
			}
		},
		{
			"from": [9.925, 12.35, 3.75],
			"to": [10.925, 13.35, 5.45],
			"rotation": {"angle": 0, "axis": "y", "origin": [10.175, 11.45, 2.75]},
			"faces": {
				"north": {"uv": [7, 6, 8, 7], "texture": "#0"},
				"east": {"uv": [7, 6, 8, 7], "texture": "#0"},
				"south": {"uv": [7, 6, 8, 7], "texture": "#0"},
				"west": {"uv": [7, 6, 8, 7], "texture": "#0"},
				"up": {"uv": [7, 6, 8, 7], "texture": "#0"},
				"down": {"uv": [7, 6, 8, 7], "texture": "#0"}
			}
		},
		{
			"from": [10.45, 14.45, 3.75],
			"to": [11.45, 15.45, 5.45],
			"rotation": {"angle": 45, "axis": "z", "origin": [11.175, 13.2, 2.75]},
			"faces": {
				"north": {"uv": [7, 6, 8, 7], "texture": "#0"},
				"east": {"uv": [7, 6, 8, 7], "texture": "#0"},
				"south": {"uv": [7, 6, 8, 7], "texture": "#0"},
				"west": {"uv": [7, 6, 8, 7], "texture": "#0"},
				"up": {"uv": [7, 6, 8, 7], "texture": "#0"},
				"down": {"uv": [7, 6, 8, 7], "texture": "#0"}
			}
		},
		{
			"from": [7.95, 16.95, 3.75],
			"to": [8.95, 17.95, 5.45],
			"rotation": {"angle": 45, "axis": "z", "origin": [11.175, 13.2, 2.75]},
			"faces": {
				"north": {"uv": [7, 6, 8, 7], "texture": "#0"},
				"east": {"uv": [7, 6, 8, 7], "texture": "#0"},
				"south": {"uv": [7, 6, 8, 7], "texture": "#0"},
				"west": {"uv": [7, 6, 8, 7], "texture": "#0"},
				"up": {"uv": [7, 6, 8, 7], "texture": "#0"},
				"down": {"uv": [7, 6, 8, 7], "texture": "#0"}
			}
		},
		{
			"from": [6.75, 10.75, 4.25],
			"to": [9.25, 13.75, 5.25],
			"rotation": {"angle": 0, "axis": "y", "origin": [7.25, 11.75, 4.25]},
			"faces": {
				"north": {"uv": [1, 6, 2, 7], "texture": "#0"},
				"east": {"uv": [1, 6, 2, 7], "texture": "#0"},
				"south": {"uv": [1, 6, 2, 7], "texture": "#0"},
				"west": {"uv": [1, 6, 2, 7], "texture": "#0"},
				"up": {"uv": [1, 6, 2, 7], "texture": "#0"},
				"down": {"uv": [1, 6, 2, 7], "texture": "#0"}
			}
		},
		{
			"from": [6.75, 9.5, 4.5],
			"to": [9.25, 10.5, 5.25],
			"rotation": {"angle": 0, "axis": "y", "origin": [7.25, 8.5, 4.25]},
			"faces": {
				"north": {"uv": [2, 6, 3, 7], "texture": "#0"},
				"east": {"uv": [2, 6, 3, 7], "texture": "#0"},
				"south": {"uv": [2, 6, 3, 7], "texture": "#0"},
				"west": {"uv": [2, 6, 3, 7], "texture": "#0"},
				"up": {"uv": [2, 6, 3, 7], "texture": "#0"},
				"down": {"uv": [2, 6, 3, 7], "texture": "#0"}
			}
		},
		{
			"from": [6.75, 10.5, 4.5],
			"to": [9.25, 11.5, 5.25],
			"rotation": {"angle": 0, "axis": "y", "origin": [7.25, 9.5, 4.25]},
			"faces": {
				"north": {"uv": [3, 6, 4, 7], "texture": "#0"},
				"east": {"uv": [3, 6, 4, 7], "texture": "#0"},
				"south": {"uv": [3, 6, 4, 7], "texture": "#0"},
				"west": {"uv": [3, 6, 4, 7], "texture": "#0"},
				"up": {"uv": [3, 6, 4, 7], "texture": "#0"},
				"down": {"uv": [3, 6, 4, 7], "texture": "#0"}
			}
		},
		{
			"from": [9.16421, 12.08579, 4],
			"to": [10.66421, 13.58579, 5.7],
			"rotation": {"angle": 0, "axis": "y", "origin": [8.66421, 11.58579, 4]},
			"faces": {
				"north": {"uv": [0, 6, 1, 7], "texture": "#0"},
				"east": {"uv": [0, 6, 1, 7], "texture": "#0"},
				"south": {"uv": [0, 6, 1, 7], "texture": "#0"},
				"west": {"uv": [0, 6, 1, 7], "texture": "#0"},
				"up": {"uv": [0, 6, 1, 7], "texture": "#0"},
				"down": {"uv": [0, 6, 1, 7], "texture": "#0"}
			}
		},
		{
			"from": [5.33579, 12.08579, 4],
			"to": [6.83579, 13.58579, 5.7],
			"rotation": {"angle": 0, "axis": "y", "origin": [4.83579, 11.58579, 4]},
			"faces": {
				"north": {"uv": [0, 6, 1, 7], "texture": "#0"},
				"east": {"uv": [0, 6, 1, 7], "texture": "#0"},
				"south": {"uv": [0, 6, 1, 7], "texture": "#0"},
				"west": {"uv": [0, 6, 1, 7], "texture": "#0"},
				"up": {"uv": [0, 6, 1, 7], "texture": "#0"},
				"down": {"uv": [0, 6, 1, 7], "texture": "#0"}
			}
		},
		{
			"from": [6.33579, 9.08579, 4],
			"to": [6.83579, 12.08579, 5.7],
			"rotation": {"angle": 0, "axis": "y", "origin": [4.83579, 10.08579, 4]},
			"faces": {
				"north": {"uv": [0, 6, 1, 7], "texture": "#0"},
				"east": {"uv": [0, 6, 1, 7], "texture": "#0"},
				"south": {"uv": [0, 6, 1, 7], "texture": "#0"},
				"west": {"uv": [0, 6, 1, 7], "texture": "#0"},
				"up": {"uv": [0, 6, 1, 7], "texture": "#0"},
				"down": {"uv": [0, 6, 1, 7], "texture": "#0"}
			}
		},
		{
			"from": [5.5, 10.08579, 4.4],
			"to": [6, 12.08579, 4.9],
			"rotation": {"angle": 0, "axis": "y", "origin": [3.58579, 10.08579, 4.4]},
			"faces": {
				"north": {"uv": [6, 6, 7, 7], "texture": "#0"},
				"east": {"uv": [6, 6, 7, 7], "texture": "#0"},
				"south": {"uv": [6, 6, 7, 7], "texture": "#0"},
				"west": {"uv": [6, 6, 7, 7], "texture": "#0"},
				"up": {"uv": [6, 6, 7, 7], "texture": "#0"},
				"down": {"uv": [6, 6, 7, 7], "texture": "#0"}
			}
		},
		{
			"from": [2, 12.65, 4.5],
			"to": [14, 13.15, 5],
			"rotation": {"angle": 0, "axis": "y", "origin": [5.01079, 10.83579, 4.5]},
			"faces": {
				"north": {"uv": [6, 6, 7, 7], "rotation": 90, "texture": "#0"},
				"east": {"uv": [6, 6, 7, 7], "rotation": 270, "texture": "#0"},
				"south": {"uv": [6, 6, 7, 7], "rotation": 270, "texture": "#0"},
				"west": {"uv": [6, 6, 7, 7], "rotation": 270, "texture": "#0"},
				"up": {"uv": [6, 6, 7, 7], "rotation": 270, "texture": "#0"},
				"down": {"uv": [6, 6, 7, 7], "rotation": 270, "texture": "#0"}
			}
		},
		{
			"from": [7.75, 6, 4.5],
			"to": [8.25, 9.5, 5],
			"rotation": {"angle": 0, "axis": "y", "origin": [5.83579, 6.48921, 4.5]},
			"faces": {
				"north": {"uv": [6, 6, 7, 7], "texture": "#0"},
				"east": {"uv": [6, 6, 7, 7], "texture": "#0"},
				"south": {"uv": [6, 6, 7, 7], "texture": "#0"},
				"west": {"uv": [6, 6, 7, 7], "texture": "#0"},
				"up": {"uv": [6, 6, 7, 7], "texture": "#0"},
				"down": {"uv": [6, 6, 7, 7], "texture": "#0"}
			}
		},
		{
			"from": [3.5, 20.8, 4.5],
			"to": [7.5, 21.3, 5],
			"rotation": {"angle": -45, "axis": "z", "origin": [-1.48921, 18.83579, 4.5]},
			"faces": {
				"north": {"uv": [6, 6, 7, 7], "rotation": 90, "texture": "#0"},
				"east": {"uv": [6, 6, 7, 7], "rotation": 270, "texture": "#0"},
				"south": {"uv": [6, 6, 7, 7], "rotation": 270, "texture": "#0"},
				"west": {"uv": [6, 6, 7, 7], "rotation": 270, "texture": "#0"},
				"up": {"uv": [6, 6, 7, 7], "rotation": 270, "texture": "#0"},
				"down": {"uv": [6, 6, 7, 7], "rotation": 270, "texture": "#0"}
			}
		},
		{
			"from": [16.39122, 12.90723, 4.5],
			"to": [16.89122, 16.90723, 5],
			"rotation": {"angle": -45, "axis": "z", "origin": [14.67701, 21.89645, 4.5]},
			"faces": {
				"north": {"uv": [6, 6, 7, 7], "texture": "#0"},
				"east": {"uv": [6, 6, 7, 7], "texture": "#0"},
				"south": {"uv": [6, 6, 7, 7], "texture": "#0"},
				"west": {"uv": [6, 6, 7, 7], "texture": "#0"},
				"up": {"uv": [6, 6, 7, 7], "texture": "#0"},
				"down": {"uv": [6, 6, 7, 7], "texture": "#0"}
			}
		},
		{
			"from": [1.5, 12.65, 4.5],
			"to": [2, 13.15, 6.5],
			"rotation": {"angle": 0, "axis": "y", "origin": [4.51079, 10.83579, 4]},
			"faces": {
				"north": {"uv": [6, 6, 7, 7], "rotation": 90, "texture": "#0"},
				"east": {"uv": [6, 6, 7, 7], "rotation": 270, "texture": "#0"},
				"south": {"uv": [6, 6, 7, 7], "rotation": 270, "texture": "#0"},
				"west": {"uv": [6, 6, 7, 7], "rotation": 270, "texture": "#0"},
				"up": {"uv": [6, 6, 7, 7], "rotation": 270, "texture": "#0"},
				"down": {"uv": [6, 6, 7, 7], "rotation": 270, "texture": "#0"}
			}
		},
		{
			"from": [14, 12.65, 4.5],
			"to": [14.5, 13.15, 6.5],
			"rotation": {"angle": 0, "axis": "y", "origin": [17.01079, 10.83579, 4]},
			"faces": {
				"north": {"uv": [6, 6, 7, 7], "rotation": 90, "texture": "#0"},
				"east": {"uv": [6, 6, 7, 7], "rotation": 270, "texture": "#0"},
				"south": {"uv": [6, 6, 7, 7], "rotation": 270, "texture": "#0"},
				"west": {"uv": [6, 6, 7, 7], "rotation": 270, "texture": "#0"},
				"up": {"uv": [6, 6, 7, 7], "rotation": 270, "texture": "#0"},
				"down": {"uv": [6, 6, 7, 7], "rotation": 270, "texture": "#0"}
			}
		},
		{
			"from": [12, 12.65, 6],
			"to": [14, 13.15, 6.5],
			"rotation": {"angle": 0, "axis": "y", "origin": [5.01079, 10.83579, 6]},
			"faces": {
				"north": {"uv": [6, 6, 7, 7], "rotation": 90, "texture": "#0"},
				"east": {"uv": [6, 6, 7, 7], "rotation": 270, "texture": "#0"},
				"south": {"uv": [6, 6, 7, 7], "rotation": 270, "texture": "#0"},
				"west": {"uv": [6, 6, 7, 7], "rotation": 270, "texture": "#0"},
				"up": {"uv": [6, 6, 7, 7], "rotation": 270, "texture": "#0"},
				"down": {"uv": [6, 6, 7, 7], "rotation": 270, "texture": "#0"}
			}
		},
		{
			"from": [2, 12.65, 6],
			"to": [4, 13.15, 6.5],
			"rotation": {"angle": 0, "axis": "y", "origin": [5.01079, 10.83579, 6]},
			"faces": {
				"north": {"uv": [6, 6, 7, 7], "rotation": 90, "texture": "#0"},
				"east": {"uv": [6, 6, 7, 7], "rotation": 270, "texture": "#0"},
				"south": {"uv": [6, 6, 7, 7], "rotation": 270, "texture": "#0"},
				"west": {"uv": [6, 6, 7, 7], "rotation": 270, "texture": "#0"},
				"up": {"uv": [6, 6, 7, 7], "rotation": 270, "texture": "#0"},
				"down": {"uv": [6, 6, 7, 7], "rotation": 270, "texture": "#0"}
			}
		},
		{
			"from": [7.85, 8.73579, 4.4],
			"to": [8.15, 10.83579, 4.9],
			"rotation": {"angle": 0, "axis": "y", "origin": [5.93579, 8.83579, 4.4]},
			"faces": {
				"north": {"uv": [4, 6, 5, 7], "texture": "#0"},
				"east": {"uv": [4, 6, 5, 7], "texture": "#0"},
				"south": {"uv": [4, 6, 5, 7], "texture": "#0"},
				"west": {"uv": [4, 6, 5, 7], "texture": "#0"},
				"up": {"uv": [4, 6, 5, 7], "texture": "#0"},
				"down": {"uv": [4, 6, 5, 7], "texture": "#0"}
			}
		},
		{
			"from": [7.15, 8.73579, 4.4],
			"to": [7.45, 10.83579, 4.9],
			"rotation": {"angle": 0, "axis": "y", "origin": [5.23579, 8.83579, 4.4]},
			"faces": {
				"north": {"uv": [4, 6, 5, 7], "texture": "#0"},
				"east": {"uv": [4, 6, 5, 7], "texture": "#0"},
				"south": {"uv": [4, 6, 5, 7], "texture": "#0"},
				"west": {"uv": [4, 6, 5, 7], "texture": "#0"},
				"up": {"uv": [4, 6, 5, 7], "texture": "#0"},
				"down": {"uv": [4, 6, 5, 7], "texture": "#0"}
			}
		},
		{
			"from": [8.55, 8.73579, 4.4],
			"to": [8.85, 10.83579, 4.9],
			"rotation": {"angle": 0, "axis": "y", "origin": [6.63579, 8.83579, 4.4]},
			"faces": {
				"north": {"uv": [4, 6, 5, 7], "texture": "#0"},
				"east": {"uv": [4, 6, 5, 7], "texture": "#0"},
				"south": {"uv": [4, 6, 5, 7], "texture": "#0"},
				"west": {"uv": [4, 6, 5, 7], "texture": "#0"},
				"up": {"uv": [4, 6, 5, 7], "texture": "#0"},
				"down": {"uv": [4, 6, 5, 7], "texture": "#0"}
			}
		},
		{
			"from": [10, 10.08579, 4.4],
			"to": [10.5, 12.08579, 4.9],
			"rotation": {"angle": 0, "axis": "y", "origin": [8.51079, 10.08579, 4.4]},
			"faces": {
				"north": {"uv": [6, 6, 7, 7], "texture": "#0"},
				"east": {"uv": [6, 6, 7, 7], "texture": "#0"},
				"south": {"uv": [6, 6, 7, 7], "texture": "#0"},
				"west": {"uv": [6, 6, 7, 7], "texture": "#0"},
				"up": {"uv": [6, 6, 7, 7], "texture": "#0"},
				"down": {"uv": [6, 6, 7, 7], "texture": "#0"}
			}
		},
		{
			"from": [7.35355, 8.36091, 4.4],
			"to": [7.85355, 9.61091, 4.9],
			"rotation": {"angle": 45, "axis": "z", "origin": [5.85355, 7.61091, 4.4]},
			"faces": {
				"north": {"uv": [6, 6, 7, 7], "texture": "#0"},
				"east": {"uv": [6, 6, 7, 7], "texture": "#0"},
				"south": {"uv": [6, 6, 7, 7], "texture": "#0"},
				"west": {"uv": [6, 6, 7, 7], "texture": "#0"},
				"up": {"uv": [6, 6, 7, 7], "texture": "#0"},
				"down": {"uv": [6, 6, 7, 7], "texture": "#0"}
			}
		},
		{
			"from": [9.17157, 10.83579, 4.4],
			"to": [9.67157, 12.08579, 4.9],
			"rotation": {"angle": -45, "axis": "z", "origin": [7.67157, 10.08579, 4.4]},
			"faces": {
				"north": {"uv": [6, 6, 7, 7], "texture": "#0"},
				"east": {"uv": [6, 6, 7, 7], "texture": "#0"},
				"south": {"uv": [6, 6, 7, 7], "texture": "#0"},
				"west": {"uv": [6, 6, 7, 7], "texture": "#0"},
				"up": {"uv": [6, 6, 7, 7], "texture": "#0"},
				"down": {"uv": [6, 6, 7, 7], "texture": "#0"}
			}
		},
		{
			"from": [9.16421, 9.08579, 4],
			"to": [9.66421, 12.08579, 5.7],
			"rotation": {"angle": 0, "axis": "y", "origin": [7.66421, 10.08579, 4]},
			"faces": {
				"north": {"uv": [0, 6, 1, 7], "texture": "#0"},
				"east": {"uv": [0, 6, 1, 7], "texture": "#0"},
				"south": {"uv": [0, 6, 1, 7], "texture": "#0"},
				"west": {"uv": [0, 6, 1, 7], "texture": "#0"},
				"up": {"uv": [0, 6, 1, 7], "texture": "#0"},
				"down": {"uv": [0, 6, 1, 7], "texture": "#0"}
			}
		},
		{
			"from": [6.75, 12.67157, 4],
			"to": [8.75, 14.17157, 5.7],
			"rotation": {"angle": 45, "axis": "z", "origin": [6.75, 12.17157, 4]},
			"faces": {
				"north": {"uv": [0, 6, 1, 7], "texture": "#0"},
				"east": {"uv": [0, 6, 1, 7], "texture": "#0"},
				"south": {"uv": [0, 6, 1, 7], "texture": "#0"},
				"west": {"uv": [0, 6, 1, 7], "texture": "#0"},
				"up": {"uv": [0, 6, 1, 7], "texture": "#0"},
				"down": {"uv": [0, 6, 1, 7], "texture": "#0"}
			}
		},
		{
			"from": [7.83579, 14.08579, 4],
			"to": [9.83579, 15.58579, 5.7],
			"rotation": {"angle": -45, "axis": "z", "origin": [7.83579, 13.58579, 4]},
			"faces": {
				"north": {"uv": [0, 6, 1, 7], "texture": "#0"},
				"east": {"uv": [0, 6, 1, 7], "texture": "#0"},
				"south": {"uv": [0, 6, 1, 7], "texture": "#0"},
				"west": {"uv": [0, 6, 1, 7], "texture": "#0"},
				"up": {"uv": [0, 6, 1, 7], "texture": "#0"},
				"down": {"uv": [0, 6, 1, 7], "texture": "#0"}
			}
		}
	],
	"display": {
		"thirdperson_righthand": {
			"rotation": [70, 4, 0],
			"translation": [0, -0.75, -1],
			"scale": [0.85, 0.85, 0.85]
		},
		"thirdperson_lefthand": {
			"rotation": [70, 4, 0],
			"translation": [0, -0.75, -1],
			"scale": [0.85, 0.85, 0.85]
		},
		"firstperson_righthand": {
			"translation": [0, -6, 4],
			"scale": [0.85, 0.85, 0.85]
		},
		"firstperson_lefthand": {
			"translation": [0, -6, 4],
			"scale": [0.85, 0.85, 0.85]
		},
		"ground": {
			"rotation": [66, 0, 0],
			"translation": [0, 3, 0],
			"scale": [0.75, 0.75, 0.75]
		},
		"gui": {
			"rotation": [-23, 150, 23],
			"translation": [-0.25, -2, 0],
			"scale": [0.625, 0.625, 0.625]
		},
		"head": {
			"rotation": [90, 0, 0],
			"translation": [0, 4.5, 0]
		},
		"fixed": {
			"translation": [0, -2.25, 1.75],
			"scale": [0.75, 0.75, 0.75]
		}
	},
	"groups": [
		{
			"name": "group",
			"origin": [2, 0, 5],
			"color": 0,
			"children": [0, 1]
		},
		{
			"name": "gen",
			"origin": [8, 8, 8],
			"color": 0,
			"children": [
				{
					"name": "glow",
					"origin": [4, 16.4, 3.75],
					"color": 0,
					"children": [2, 3, 4, 5]
				},
				6,
				7,
				8,
				9,
				10,
				11,
				12,
				13,
				14,
				15,
				16,
				17,
				18,
				19,
				20,
				21,
				22,
				23,
				24,
				25,
				26,
				27,
				28,
				29,
				30,
				31,
				32,
				33,
				34,
				35,
				36,
				37
			]
		}
	]
}