{
	"credit": "Made with Blockbench",
	"texture_size": [32, 32],
	"textures": {
		"0": "tardis:item/tools/piston_hammer",
		"particle": "tardis:item/tools/piston_hammer"
	},
	"elements": [
		{
			"from": [12.35, 14.895, 5.325],
			"to": [17.75, 15.975, 10.725],
			"rotation": {"angle": 22.5, "axis": "z", "origin": [8.875, 2.775, 7.95]},
			"faces": {
				"north": {"uv": [2.75, 10.5, 0, 10], "texture": "#0"},
				"east": {"uv": [9.5, 9, 10, 11.75], "rotation": 90, "texture": "#0"},
				"south": {"uv": [5.75, 10, 3, 10.5], "rotation": 180, "texture": "#0"},
				"west": {"uv": [9.5, 6, 10, 8.75], "rotation": 270, "texture": "#0"},
				"up": {"uv": [0, 0, 2.75, 2.75], "texture": "#0"},
				"down": {"uv": [0, 3, 2.75, 5.75], "rotation": 180, "texture": "#0"}
			}
		},
		{
			"from": [13.97, 13.815, 6.945],
			"to": [16.13, 14.895, 9.105],
			"rotation": {"angle": 22.5, "axis": "z", "origin": [8.875, 2.775, 7.95]},
			"faces": {
				"north": {"uv": [3.5, 11, 2.5, 10.5], "texture": "#0"},
				"east": {"uv": [2, 10.5, 2.5, 11.5], "rotation": 90, "texture": "#0"},
				"south": {"uv": [4.5, 10.5, 3.5, 11], "rotation": 180, "texture": "#0"},
				"west": {"uv": [9, 10, 9.5, 11], "rotation": 270, "texture": "#0"},
				"up": {"uv": [6, 10, 7, 11], "texture": "#0"},
				"down": {"uv": [10, 6, 11, 7], "rotation": 180, "texture": "#0"}
			}
		},
		{
			"from": [12.35, 8.415, 5.325],
			"to": [17.75, 13.815, 10.725],
			"rotation": {"angle": 22.5, "axis": "z", "origin": [8.875, 2.775, 7.95]},
			"faces": {
				"north": {"uv": [5.75, 8.75, 3, 6], "texture": "#0"},
				"east": {"uv": [6, 0, 8.75, 2.75], "rotation": 90, "texture": "#0"},
				"south": {"uv": [8.75, 3, 6, 5.75], "rotation": 180, "texture": "#0"},
				"west": {"uv": [3, 3, 5.75, 5.75], "rotation": 270, "texture": "#0"},
				"up": {"uv": [3, 0, 5.75, 2.75], "texture": "#0"},
				"down": {"uv": [0, 6, 2.75, 8.75], "rotation": 180, "texture": "#0"}
			}
		},
		{
			"from": [12.35, 0.075, 5.325],
			"to": [17.75, 1.155, 10.725],
			"rotation": {"angle": 22.5, "axis": "z", "origin": [8.875, 2.775, 7.95]},
			"faces": {
				"north": {"uv": [5.75, 10, 3, 10.5], "texture": "#0"},
				"east": {"uv": [9.5, 9, 10, 11.75], "rotation": 270, "texture": "#0"},
				"south": {"uv": [2.75, 10.5, 0, 10], "rotation": 180, "texture": "#0"},
				"west": {"uv": [9.5, 6, 10, 8.75], "rotation": 90, "texture": "#0"},
				"up": {"uv": [0, 3, 2.75, 5.75], "rotation": 180, "texture": "#0"},
				"down": {"uv": [0, 0, 2.75, 2.75], "texture": "#0"}
			}
		},
		{
			"from": [13.97, 1.155, 6.945],
			"to": [16.13, 2.235, 9.105],
			"rotation": {"angle": 22.5, "axis": "z", "origin": [8.875, 2.775, 7.95]},
			"faces": {
				"north": {"uv": [4.5, 10.5, 3.5, 11], "texture": "#0"},
				"east": {"uv": [2, 10.5, 2.5, 11.5], "rotation": 270, "texture": "#0"},
				"south": {"uv": [3.5, 11, 2.5, 10.5], "rotation": 180, "texture": "#0"},
				"west": {"uv": [9, 10, 9.5, 11], "rotation": 90, "texture": "#0"},
				"up": {"uv": [10, 6, 11, 7], "rotation": 180, "texture": "#0"},
				"down": {"uv": [6, 10, 7, 11], "texture": "#0"}
			}
		},
		{
			"from": [12.35, 2.235, 5.325],
			"to": [17.75, 7.635, 10.725],
			"rotation": {"angle": 22.5, "axis": "z", "origin": [8.875, 2.775, 7.95]},
			"faces": {
				"north": {"uv": [8.75, 3, 6, 5.75], "texture": "#0"},
				"east": {"uv": [6, 0, 8.75, 2.75], "rotation": 270, "texture": "#0"},
				"south": {"uv": [5.75, 8.75, 3, 6], "rotation": 180, "texture": "#0"},
				"west": {"uv": [3, 3, 5.75, 5.75], "rotation": 90, "texture": "#0"},
				"up": {"uv": [0, 6, 2.75, 8.75], "rotation": 180, "texture": "#0"},
				"down": {"uv": [3, 0, 5.75, 2.75], "texture": "#0"}
			}
		},
		{
			"from": [11.75, 6.975, 6.875],
			"to": [18.75, 8.975, 8.875],
			"rotation": {"angle": 22.5, "axis": "z", "origin": [8.875, 2.775, 7.95]},
			"faces": {
				"north": {"uv": [9.5, 9, 6, 8], "texture": "#0"},
				"east": {"uv": [10, 7, 11, 8], "rotation": 90, "texture": "#0"},
				"south": {"uv": [3.5, 9, 0, 10], "rotation": 180, "texture": "#0"},
				"west": {"uv": [7, 10, 8, 11], "rotation": 270, "texture": "#0"},
				"up": {"uv": [6, 6, 9.5, 7], "texture": "#0"},
				"down": {"uv": [6, 7, 9.5, 8], "rotation": 180, "texture": "#0"}
			}
		},
		{
			"from": [-1.25, 6.975, 6.875],
			"to": [5.75, 8.975, 8.875],
			"rotation": {"angle": 22.5, "axis": "z", "origin": [8.875, 2.775, 7.95]},
			"faces": {
				"north": {"uv": [12.5, 3, 9, 2], "texture": "#0"},
				"east": {"uv": [10, 8, 11, 9], "rotation": 90, "texture": "#0"},
				"south": {"uv": [12.5, 3, 9, 4], "rotation": 180, "texture": "#0"},
				"west": {"uv": [8, 10, 9, 11], "rotation": 270, "texture": "#0"},
				"up": {"uv": [9, 0, 12.5, 1], "texture": "#0"},
				"down": {"uv": [9, 1, 12.5, 2], "rotation": 180, "texture": "#0"}
			}
		},
		{
			"from": [5.75, 7.225, 7.125],
			"to": [11.75, 8.725, 8.625],
			"rotation": {"angle": 22.5, "axis": "z", "origin": [8.875, 2.775, 7.95]},
			"faces": {
				"north": {"uv": [12, 5.75, 9, 5], "texture": "#0"},
				"east": {"uv": [10, 10, 10.75, 10.75], "rotation": 90, "texture": "#0"},
				"south": {"uv": [9.5, 9, 6.5, 9.75], "rotation": 180, "texture": "#0"},
				"west": {"uv": [10, 9, 10.75, 9.75], "rotation": 270, "texture": "#0"},
				"up": {"uv": [3.5, 9, 6.5, 9.75], "texture": "#0"},
				"down": {"uv": [9, 4, 12, 4.75], "rotation": 180, "texture": "#0"}
			}
		},
		{
			"from": [-1.75, 7.225, 7.125],
			"to": [-0.75, 8.725, 8.625],
			"rotation": {"angle": 22.5, "axis": "z", "origin": [8.875, 2.775, 7.95]},
			"faces": {
				"north": {"uv": [6, 11.25, 5.5, 10.5], "texture": "#0"},
				"east": {"uv": [1, 10.5, 1.75, 11.25], "rotation": 90, "texture": "#0"},
				"south": {"uv": [3, 11, 2.5, 11.75], "rotation": 180, "texture": "#0"},
				"west": {"uv": [0, 10.5, 0.75, 11.25], "rotation": 270, "texture": "#0"},
				"up": {"uv": [4.5, 10.5, 5, 11.25], "texture": "#0"},
				"down": {"uv": [5, 10.5, 5.5, 11.25], "rotation": 180, "texture": "#0"}
			}
		},
		{
			"from": [18.5, 7.225, 7.125],
			"to": [19.5, 8.725, 8.625],
			"rotation": {"angle": 22.5, "axis": "z", "origin": [8.875, 2.775, 7.95]},
			"faces": {
				"north": {"uv": [6, 11.25, 5.5, 10.5], "texture": "#0"},
				"east": {"uv": [1, 10.5, 1.75, 11.25], "rotation": 90, "texture": "#0"},
				"south": {"uv": [3, 11, 2.5, 11.75], "rotation": 180, "texture": "#0"},
				"west": {"uv": [0, 10.5, 0.75, 11.25], "rotation": 270, "texture": "#0"},
				"up": {"uv": [4.5, 10.5, 5, 11.25], "texture": "#0"},
				"down": {"uv": [5, 10.5, 5.5, 11.25], "rotation": 180, "texture": "#0"}
			}
		}
	],
	"display": {
		"thirdperson_righthand": {
			"rotation": [0, -90, 88],
			"translation": [0, 4.25, -1.25],
			"scale": [0.85, 0.85, 0.85]
		},
		"thirdperson_lefthand": {
			"rotation": [0, 90, -88],
			"translation": [0, 4.75, -1.5],
			"scale": [0.85, 0.85, 0.85]
		},
		"firstperson_righthand": {
			"rotation": [0, -90, 66],
			"translation": [1.13, 3.2, 1.13],
			"scale": [0.68, 0.68, 0.68]
		},
		"firstperson_lefthand": {
			"rotation": [0, 90, -66],
			"translation": [1.13, 3.2, 1.13],
			"scale": [0.68, 0.68, 0.68]
		},
		"ground": {
			"rotation": [-88, 0, 162],
			"translation": [0, -1.25, 0],
			"scale": [1.1, 1.1, 1.1]
		},
		"gui": {
			"rotation": [0, 0, 24],
			"translation": [0, -0.75, 0],
			"scale": [0.85, 0.85, 0.85]
		},
		"head": {
			"rotation": [0, 0, 66],
			"translation": [0, 4.25, -0.25]
		},
		"fixed": {
			"rotation": [0, 180, 24],
			"translation": [0.5, -0.5, 0]
		}
	},
	"groups": [
		{
			"name": "piston_hammer",
			"origin": [0, 0, 0],
			"color": 0,
			"children": [
				{
					"name": "piston",
					"origin": [0, 0, 0],
					"color": 0,
					"children": [0, 1, 2]
				},
				{
					"name": "piston",
					"origin": [0, 0, 0],
					"color": 0,
					"children": [3, 4, 5]
				},
				{
					"name": "shaft",
					"origin": [0, 0, 0],
					"color": 0,
					"children": [6, 7, 8, 9, 10]
				}
			]
		}
	]
}