{
	"credit": "Made with Blockbench",
	"texture_size": [32, 32],
	"textures": {
		"0": "tardis:item/tools/stattenhiem_remote"
	},
	"elements": [
		{
			"from": [5.8, 0, 5],
			"to": [11.2, 1, 7],
			"faces": {
				"north": {"uv": [5.5, 7.5, 8, 8], "texture": "#0"},
				"east": {"uv": [7.5, 9, 8.5, 9.5], "texture": "#0"},
				"south": {"uv": [7.5, 4, 10, 4.5], "texture": "#0"},
				"west": {"uv": [8.5, 9, 9.5, 9.5], "texture": "#0"},
				"up": {"uv": [7.5, 5, 5, 4], "texture": "#0"},
				"down": {"uv": [2.5, 6, 0, 7], "texture": "#0"}
			}
		},
		{
			"from": [5.75, -0.25, 4.5],
			"to": [11.25, 1.25, 5],
			"faces": {
				"north": {"uv": [3, 2, 6, 3], "texture": "#0"},
				"east": {"uv": [9, 0, 9.5, 1], "texture": "#0"},
				"south": {"uv": [0, 5, 3, 6], "texture": "#0"},
				"west": {"uv": [9, 2, 9.5, 3], "texture": "#0"},
				"up": {"uv": [9, 3, 6, 2.5], "texture": "#0"},
				"down": {"uv": [9, 5, 6, 5.5], "texture": "#0"}
			}
		},
		{
			"from": [9.5, 0.25, 7.75],
			"to": [11.25, 1.25, 8.25],
			"faces": {
				"north": {"uv": [9, 5, 10, 5.5], "texture": "#0"},
				"east": {"uv": [9.5, 4.5, 10, 5], "texture": "#0"},
				"south": {"uv": [9, 5.5, 10, 6], "texture": "#0"},
				"west": {"uv": [9.5, 9, 10, 9.5], "texture": "#0"},
				"up": {"uv": [10, 8.5, 9, 8], "texture": "#0"},
				"down": {"uv": [10, 8.5, 9, 9], "texture": "#0"}
			}
		},
		{
			"from": [5.75, 0.25, 7.75],
			"to": [7.5, 1.25, 8.25],
			"faces": {
				"north": {"uv": [0, 9.5, 1, 10], "texture": "#0"},
				"east": {"uv": [0, 10, 0.5, 10.5], "texture": "#0"},
				"south": {"uv": [1, 9.5, 2, 10], "texture": "#0"},
				"west": {"uv": [0.5, 10, 1, 10.5], "texture": "#0"},
				"up": {"uv": [3, 10, 2, 9.5], "texture": "#0"},
				"down": {"uv": [4, 9.5, 3, 10], "texture": "#0"}
			}
		},
		{
			"from": [7.625, 0.25, 7.75],
			"to": [9.375, 1.25, 8.25],
			"faces": {
				"north": {"uv": [4, 9.5, 5, 10], "texture": "#0"},
				"east": {"uv": [1, 10, 1.5, 10.5], "texture": "#0"},
				"south": {"uv": [5, 9.5, 6, 10], "texture": "#0"},
				"west": {"uv": [1.5, 10, 2, 10.5], "texture": "#0"},
				"up": {"uv": [7, 10, 6, 9.5], "texture": "#0"},
				"down": {"uv": [8, 9.5, 7, 10], "texture": "#0"}
			}
		},
		{
			"from": [6.625, 0.075, 6.5],
			"to": [10.375, 1.075, 7],
			"faces": {
				"north": {"uv": [8, 1, 10, 1.5], "texture": "#0"},
				"east": {"uv": [2, 10, 2.5, 10.5], "texture": "#0"},
				"south": {"uv": [8, 1.5, 10, 2], "texture": "#0"},
				"west": {"uv": [2.5, 10, 3, 10.5], "texture": "#0"},
				"up": {"uv": [10, 3.5, 8, 3], "texture": "#0"},
				"down": {"uv": [10, 3.5, 8, 4], "texture": "#0"}
			}
		},
		{
			"from": [6.75, 0.075, 6],
			"to": [10.25, 1.075, 6.5],
			"faces": {
				"north": {"uv": [8, 7.5, 10, 8], "texture": "#0"},
				"east": {"uv": [3, 10, 3.5, 10.5], "texture": "#0"},
				"south": {"uv": [2, 8.5, 4, 9], "texture": "#0"},
				"west": {"uv": [3.5, 10, 4, 10.5], "texture": "#0"},
				"up": {"uv": [6, 9, 4, 8.5], "texture": "#0"},
				"down": {"uv": [8, 8.5, 6, 9], "texture": "#0"}
			}
		},
		{
			"from": [7.25, 0.075, 5.5],
			"to": [9.75, 1.075, 6],
			"faces": {
				"north": {"uv": [1.5, 9, 3, 9.5], "texture": "#0"},
				"east": {"uv": [4, 10, 4.5, 10.5], "texture": "#0"},
				"south": {"uv": [3, 9, 4.5, 9.5], "texture": "#0"},
				"west": {"uv": [4.5, 10, 5, 10.5], "texture": "#0"},
				"up": {"uv": [6, 9.5, 4.5, 9], "texture": "#0"},
				"down": {"uv": [7.5, 9, 6, 9.5], "texture": "#0"}
			}
		},
		{
			"from": [6.625, 0.1, 9],
			"to": [10.375, 1.1, 12.5],
			"faces": {
				"north": {"uv": [7.5, 4.5, 9.5, 5], "texture": "#0"},
				"east": {"uv": [2, 8, 4, 8.5], "texture": "#0"},
				"south": {"uv": [4, 8, 6, 8.5], "texture": "#0"},
				"west": {"uv": [6, 8, 8, 8.5], "texture": "#0"},
				"up": {"uv": [5, 5, 3, 3], "texture": "#0"},
				"down": {"uv": [5, 0, 3, 2], "texture": "#0"}
			}
		},
		{
			"from": [7.125, 0.35, 9.5],
			"to": [9.875, 1.6, 12],
			"faces": {
				"north": {"uv": [8.5, 6, 10, 6.5], "texture": "#0"},
				"east": {"uv": [8.5, 6.5, 10, 7], "texture": "#0"},
				"south": {"uv": [8.5, 7, 10, 7.5], "texture": "#0"},
				"west": {"uv": [0, 9, 1.5, 9.5], "texture": "#0"},
				"up": {"uv": [1.5, 3, 0, 1.5], "texture": "#0"},
				"down": {"uv": [5.5, 6, 4, 7.5], "texture": "#0"}
			}
		},
		{
			"from": [7.375, 1.6, 9.75],
			"to": [9.625, 1.85, 11.75],
			"faces": {
				"north": {"uv": [8, 9.5, 9, 10], "texture": "#0"},
				"east": {"uv": [9, 9.5, 10, 10], "texture": "#0"},
				"south": {"uv": [9.5, 0, 10.5, 0.5], "texture": "#0"},
				"west": {"uv": [9.5, 0.5, 10.5, 1], "texture": "#0"},
				"up": {"uv": [9, 9, 8, 8], "texture": "#0"},
				"down": {"uv": [9, 0, 8, 1], "texture": "#0"}
			}
		},
		{
			"from": [5.75, -0.25, 3],
			"to": [11.25, 1.25, 4.5],
			"faces": {
				"north": {"uv": [3, 5, 6, 6], "texture": "#0"},
				"east": {"uv": [0, 8, 1, 9], "texture": "#0"},
				"south": {"uv": [5, 0, 8, 1], "texture": "#0"},
				"west": {"uv": [1, 8, 2, 9], "texture": "#0"},
				"up": {"uv": [8, 2, 5, 1], "texture": "#0"},
				"down": {"uv": [8, 3, 5, 4], "texture": "#0"}
			}
		},
		{
			"from": [5.5, 0, 7],
			"to": [11.5, 1, 12.25],
			"faces": {
				"north": {"uv": [5.5, 6, 8.5, 6.5], "texture": "#0"},
				"east": {"uv": [0, 7, 2.5, 7.5], "texture": "#0"},
				"south": {"uv": [6, 2, 9, 2.5], "texture": "#0"},
				"west": {"uv": [3, 7.5, 5.5, 8], "texture": "#0"},
				"up": {"uv": [3, 2.5, 0, 0], "texture": "#0"},
				"down": {"uv": [3, 2.5, 0, 5], "texture": "#0"}
			}
		},
		{
			"from": [5.75, 0, 12.25],
			"to": [11.25, 1, 13.25],
			"faces": {
				"north": {"uv": [6, 5.5, 9, 6], "texture": "#0"},
				"east": {"uv": [9.5, 2, 10, 2.5], "texture": "#0"},
				"south": {"uv": [5.5, 6.5, 8.5, 7], "texture": "#0"},
				"west": {"uv": [9.5, 2.5, 10, 3], "texture": "#0"},
				"up": {"uv": [8.5, 7.5, 5.5, 7], "texture": "#0"},
				"down": {"uv": [3, 7.5, 0, 8], "texture": "#0"}
			}
		}
	],
	"display": {
		"thirdperson_righthand": {
			"rotation": [-90, 0, -180],
			"translation": [0, 1.25, 4.5],
			"scale": [0.5, 0.5, 0.5]
		},
		"thirdperson_lefthand": {
			"rotation": [-90, 0, -180],
			"translation": [0, 1.25, 4.5],
			"scale": [0.5, 0.5, 0.5]
		},
		"firstperson_righthand": {
			"rotation": [65, -180, -12],
			"translation": [0.75, 4.75, 4.25]
		},
		"firstperson_lefthand": {
			"rotation": [65, -180, -12],
			"translation": [0.75, 4.75, 4.25]
		},
		"ground": {
			"translation": [0, 4.5, 0],
			"scale": [0.5, 0.5, 0.5]
		},
		"gui": {
			"rotation": [-129, 30, -180],
			"translation": [0.5, 5.5, 0],
			"scale": [1.3, 1.3, 1.3]
		},
		"head": {
			"rotation": [0, -180, 0],
			"translation": [0.5, 2.75, -7.25]
		},
		"fixed": {
			"rotation": [-90, 0, 0],
			"translation": [-0.5, -0.25, -8]
		}
	}
}