{
  "parent": "tardis:crystal_dream",
  "criteria": {
    "takeoff": {
      "conditions": {},
      "trigger": "tardis:takeoff_tardis"
    }
  },
  "display": {
    "announce_to_chat": true,
    "background": "tardis:textures/block/decoration/roundels/concrete/light_blue_concrete_full.png",
    "description": {
      "translate": "tardis.advancement.desc.tardis.first_takeoff"
    },
    "frame": "goal",
    "hidden": false,
    "icon": {
      "item": "tardis:components/demat_circuit",
      "nbt": "{Damage:0}"
    },
    "show_toast": true,
    "title": {
      "translate": "tardis.advancement.title.tardis.first_takeoff"
    }
  },
  "requirements": [
    [
      "takeoff"
    ]
  ]
}