{
  "parent": "minecraft:block/slab",
  "render_type": "minecraft:solid",
  "textures": {
    "bottom": "tardis:block/decoration/tardis_coral_block",
    "side": "tardis:block/decoration/tardis_coral_block",
    "top": "tardis:block/decoration/tardis_coral_block"
  }
}