{
  "parent": "minecraft:block/slab_top",
  "render_type": "minecraft:translucent",
  "textures": {
    "bottom": "tardis:block/decoration/metal_grate",
    "side": "tardis:block/decoration/metal_grate_slab_side",
    "top": "tardis:block/decoration/metal_grate"
  }
}