{
  "parent": "minecraft:block/slab_top",
  "render_type": "minecraft:solid",
  "textures": {
    "bottom": "tardis:block/decoration/tungsten/tungsten_plate_small",
    "side": "tardis:block/decoration/tungsten/tungsten_plate_small",
    "top": "tardis:block/decoration/tungsten/tungsten_plate_small"
  }
}